G04 #@! TF.GenerationSoftware,KiCad,Pcbnew,5.0.2-bee76a0~70~ubuntu18.04.1*
G04 #@! TF.CreationDate,2020-04-14T14:24:45+02:00*
G04 #@! TF.ProjectId,MegaLeoPcb,4d656761-4c65-46f5-9063-622e6b696361,rev?*
G04 #@! TF.SameCoordinates,Original*
G04 #@! TF.FileFunction,Legend,Bot*
G04 #@! TF.FilePolarity,Positive*
%FSLAX46Y46*%
G04 Gerber Fmt 4.6, Leading zero omitted, Abs format (unit mm)*
G04 Created by KiCad (PCBNEW 5.0.2-bee76a0~70~ubuntu18.04.1) date Tue 14 Apr 2020 14:24:45 CEST*
%MOMM*%
%LPD*%
G01*
G04 APERTURE LIST*
%ADD10C,0.150000*%
%ADD11C,0.120000*%
G04 APERTURE END LIST*
D10*
G04 #@! TO.C,XA1*
X108712000Y-25908000D02*
X162052000Y-25908000D01*
X121412000Y-124968000D02*
X110236000Y-124968000D01*
X123952000Y-127508000D02*
X121412000Y-124968000D01*
X158242000Y-127508000D02*
X123952000Y-127508000D01*
X160782000Y-124968000D02*
X158242000Y-127508000D01*
X162052000Y-124968000D02*
X160782000Y-124968000D01*
X108712000Y-123444000D02*
X110236000Y-124968000D01*
X162052000Y-25908000D02*
X162052000Y-124968000D01*
X108712000Y-25908000D02*
X108712000Y-123444000D01*
D11*
G04 #@! TO.C,Q1*
X150678000Y-131332000D02*
X150678000Y-129872000D01*
X147518000Y-131332000D02*
X147518000Y-129172000D01*
X147518000Y-131332000D02*
X148448000Y-131332000D01*
X150678000Y-131332000D02*
X149748000Y-131332000D01*
G04 #@! TO.C,Q2*
X177602000Y-131332000D02*
X177602000Y-129872000D01*
X174442000Y-131332000D02*
X174442000Y-129172000D01*
X174442000Y-131332000D02*
X175372000Y-131332000D01*
X177602000Y-131332000D02*
X176672000Y-131332000D01*
G04 #@! TO.C,Q3*
X159568000Y-131332000D02*
X159568000Y-129872000D01*
X156408000Y-131332000D02*
X156408000Y-129172000D01*
X156408000Y-131332000D02*
X157338000Y-131332000D01*
X159568000Y-131332000D02*
X158638000Y-131332000D01*
G04 #@! TO.C,Q4*
X168712000Y-131332000D02*
X168712000Y-129872000D01*
X165552000Y-131332000D02*
X165552000Y-129172000D01*
X165552000Y-131332000D02*
X166482000Y-131332000D01*
X168712000Y-131332000D02*
X167782000Y-131332000D01*
G04 #@! TO.C,Q5*
X93966000Y-90226000D02*
X95426000Y-90226000D01*
X93966000Y-87066000D02*
X96126000Y-87066000D01*
X93966000Y-87066000D02*
X93966000Y-87996000D01*
X93966000Y-90226000D02*
X93966000Y-89296000D01*
G04 #@! TO.C,Q6*
X93966000Y-81082000D02*
X93966000Y-80152000D01*
X93966000Y-77922000D02*
X93966000Y-78852000D01*
X93966000Y-77922000D02*
X96126000Y-77922000D01*
X93966000Y-81082000D02*
X95426000Y-81082000D01*
G04 #@! TO.C,Q7*
X93966000Y-99116000D02*
X95426000Y-99116000D01*
X93966000Y-95956000D02*
X96126000Y-95956000D01*
X93966000Y-95956000D02*
X93966000Y-96886000D01*
X93966000Y-99116000D02*
X93966000Y-98186000D01*
G04 #@! TO.C,Q8*
X141580000Y-132760000D02*
X141580000Y-131300000D01*
X138420000Y-132760000D02*
X138420000Y-130600000D01*
X138420000Y-132760000D02*
X139350000Y-132760000D01*
X141580000Y-132760000D02*
X140650000Y-132760000D01*
G04 #@! TO.C,Q9*
X93998000Y-123566000D02*
X93998000Y-122636000D01*
X93998000Y-120406000D02*
X93998000Y-121336000D01*
X93998000Y-120406000D02*
X96158000Y-120406000D01*
X93998000Y-123566000D02*
X95458000Y-123566000D01*
G04 #@! TO.C,Q10*
X93966000Y-115118000D02*
X93966000Y-114188000D01*
X93966000Y-111958000D02*
X93966000Y-112888000D01*
X93966000Y-111958000D02*
X96126000Y-111958000D01*
X93966000Y-115118000D02*
X95426000Y-115118000D01*
G04 #@! TO.C,Q11*
X93998000Y-131948000D02*
X93998000Y-131018000D01*
X93998000Y-128788000D02*
X93998000Y-129718000D01*
X93998000Y-128788000D02*
X96158000Y-128788000D01*
X93998000Y-131948000D02*
X95458000Y-131948000D01*
G04 #@! TO.C,Q12*
X93966000Y-106580000D02*
X93966000Y-105650000D01*
X93966000Y-103420000D02*
X93966000Y-104350000D01*
X93966000Y-103420000D02*
X96126000Y-103420000D01*
X93966000Y-106580000D02*
X95426000Y-106580000D01*
G04 #@! TO.C,Q13*
X115118000Y-130554000D02*
X114188000Y-130554000D01*
X111958000Y-130554000D02*
X112888000Y-130554000D01*
X111958000Y-130554000D02*
X111958000Y-128394000D01*
X115118000Y-130554000D02*
X115118000Y-129094000D01*
G04 #@! TO.C,Q14*
X109530000Y-130570000D02*
X108600000Y-130570000D01*
X106370000Y-130570000D02*
X107300000Y-130570000D01*
X106370000Y-130570000D02*
X106370000Y-128410000D01*
X109530000Y-130570000D02*
X109530000Y-129110000D01*
G04 #@! TO.C,Q15*
X127580000Y-130760000D02*
X126650000Y-130760000D01*
X124420000Y-130760000D02*
X125350000Y-130760000D01*
X124420000Y-130760000D02*
X124420000Y-128600000D01*
X127580000Y-130760000D02*
X127580000Y-129300000D01*
G04 #@! TO.C,Q16*
X101722000Y-131046000D02*
X101722000Y-129586000D01*
X98562000Y-131046000D02*
X98562000Y-128886000D01*
X98562000Y-131046000D02*
X99492000Y-131046000D01*
X101722000Y-131046000D02*
X100792000Y-131046000D01*
G04 #@! TO.C,R7*
X164368267Y-83818000D02*
X164025733Y-83818000D01*
X164368267Y-84838000D02*
X164025733Y-84838000D01*
G04 #@! TO.C,R14*
X164368267Y-76198000D02*
X164025733Y-76198000D01*
X164368267Y-77218000D02*
X164025733Y-77218000D01*
G04 #@! TO.C,R15*
X164368267Y-79758000D02*
X164025733Y-79758000D01*
X164368267Y-78738000D02*
X164025733Y-78738000D01*
G04 #@! TO.C,R16*
X164368267Y-81278000D02*
X164025733Y-81278000D01*
X164368267Y-82298000D02*
X164025733Y-82298000D01*
G04 #@! TO.C,R17*
X147378267Y-128018000D02*
X147035733Y-128018000D01*
X147378267Y-126998000D02*
X147035733Y-126998000D01*
G04 #@! TO.C,R18*
X174302267Y-126998000D02*
X173959733Y-126998000D01*
X174302267Y-128018000D02*
X173959733Y-128018000D01*
G04 #@! TO.C,R19*
X156268267Y-126998000D02*
X155925733Y-126998000D01*
X156268267Y-128018000D02*
X155925733Y-128018000D01*
G04 #@! TO.C,R20*
X165412267Y-128018000D02*
X165069733Y-128018000D01*
X165412267Y-126998000D02*
X165069733Y-126998000D01*
G04 #@! TO.C,R21*
X133916267Y-127760000D02*
X133573733Y-127760000D01*
X133916267Y-128780000D02*
X133573733Y-128780000D01*
G04 #@! TO.C,R22*
X135948267Y-114556000D02*
X135605733Y-114556000D01*
X135948267Y-113536000D02*
X135605733Y-113536000D01*
G04 #@! TO.C,R23*
X133916267Y-127002000D02*
X133573733Y-127002000D01*
X133916267Y-125982000D02*
X133573733Y-125982000D01*
G04 #@! TO.C,R24*
X135920267Y-115314000D02*
X135577733Y-115314000D01*
X135920267Y-116334000D02*
X135577733Y-116334000D01*
G04 #@! TO.C,R25*
X133916267Y-125224000D02*
X133573733Y-125224000D01*
X133916267Y-124204000D02*
X133573733Y-124204000D01*
G04 #@! TO.C,R26*
X135948267Y-117092000D02*
X135605733Y-117092000D01*
X135948267Y-118112000D02*
X135605733Y-118112000D01*
G04 #@! TO.C,R27*
X140238267Y-128780000D02*
X139895733Y-128780000D01*
X140238267Y-127760000D02*
X139895733Y-127760000D01*
G04 #@! TO.C,R28*
X142806267Y-113536000D02*
X142463733Y-113536000D01*
X142806267Y-114556000D02*
X142463733Y-114556000D01*
G04 #@! TO.C,R29*
X140238267Y-125982000D02*
X139895733Y-125982000D01*
X140238267Y-127002000D02*
X139895733Y-127002000D01*
G04 #@! TO.C,R30*
X142778267Y-116334000D02*
X142435733Y-116334000D01*
X142778267Y-115314000D02*
X142435733Y-115314000D01*
G04 #@! TO.C,R31*
X140266267Y-124204000D02*
X139923733Y-124204000D01*
X140266267Y-125224000D02*
X139923733Y-125224000D01*
G04 #@! TO.C,R32*
X142778267Y-118112000D02*
X142435733Y-118112000D01*
X142778267Y-117092000D02*
X142435733Y-117092000D01*
G04 #@! TO.C,R69*
X99062000Y-86926267D02*
X99062000Y-86583733D01*
X98042000Y-86926267D02*
X98042000Y-86583733D01*
G04 #@! TO.C,R70*
X98042000Y-77782267D02*
X98042000Y-77439733D01*
X99062000Y-77782267D02*
X99062000Y-77439733D01*
G04 #@! TO.C,R71*
X98042000Y-95816267D02*
X98042000Y-95473733D01*
X99062000Y-95816267D02*
X99062000Y-95473733D01*
G04 #@! TO.C,R72*
X134046267Y-130490000D02*
X133703733Y-130490000D01*
X134046267Y-131510000D02*
X133703733Y-131510000D01*
G04 #@! TO.C,R73*
X99062000Y-120200267D02*
X99062000Y-119857733D01*
X98042000Y-120200267D02*
X98042000Y-119857733D01*
G04 #@! TO.C,R74*
X98042000Y-111790267D02*
X98042000Y-111447733D01*
X99062000Y-111790267D02*
X99062000Y-111447733D01*
G04 #@! TO.C,R75*
X95248000Y-126550267D02*
X95248000Y-126207733D01*
X96268000Y-126550267D02*
X96268000Y-126207733D01*
G04 #@! TO.C,R76*
X99062000Y-103182267D02*
X99062000Y-102839733D01*
X98042000Y-103182267D02*
X98042000Y-102839733D01*
G04 #@! TO.C,R77*
X111790267Y-126744000D02*
X111447733Y-126744000D01*
X111790267Y-127764000D02*
X111447733Y-127764000D01*
G04 #@! TO.C,R78*
X106343267Y-127764000D02*
X106000733Y-127764000D01*
X106343267Y-126744000D02*
X106000733Y-126744000D01*
G04 #@! TO.C,R79*
X122171267Y-129510000D02*
X121828733Y-129510000D01*
X122171267Y-128490000D02*
X121828733Y-128490000D01*
G04 #@! TO.C,R80*
X100045733Y-127764000D02*
X100388267Y-127764000D01*
X100045733Y-126744000D02*
X100388267Y-126744000D01*
G04 #@! TO.C,XA1*
D10*
X107148380Y-27209904D02*
X108148380Y-27876571D01*
X107148380Y-27876571D02*
X108148380Y-27209904D01*
X107862666Y-28209904D02*
X107862666Y-28686095D01*
X108148380Y-28114666D02*
X107148380Y-28448000D01*
X108148380Y-28781333D01*
X108148380Y-29638476D02*
X108148380Y-29067047D01*
X108148380Y-29352761D02*
X107148380Y-29352761D01*
X107291238Y-29257523D01*
X107386476Y-29162285D01*
X107434095Y-29067047D01*
X130405142Y-88392000D02*
X130452761Y-88439619D01*
X130500380Y-88392000D01*
X130452761Y-88344380D01*
X130405142Y-88392000D01*
X130500380Y-88392000D01*
G04 #@! TO.C,Q1*
X147145619Y-130476761D02*
X147098000Y-130381523D01*
X147002761Y-130286285D01*
X146859904Y-130143428D01*
X146812285Y-130048190D01*
X146812285Y-129952952D01*
X147050380Y-130000571D02*
X147002761Y-129905333D01*
X146907523Y-129810095D01*
X146717047Y-129762476D01*
X146383714Y-129762476D01*
X146193238Y-129810095D01*
X146098000Y-129905333D01*
X146050380Y-130000571D01*
X146050380Y-130191047D01*
X146098000Y-130286285D01*
X146193238Y-130381523D01*
X146383714Y-130429142D01*
X146717047Y-130429142D01*
X146907523Y-130381523D01*
X147002761Y-130286285D01*
X147050380Y-130191047D01*
X147050380Y-130000571D01*
X147050380Y-131381523D02*
X147050380Y-130810095D01*
X147050380Y-131095809D02*
X146050380Y-131095809D01*
X146193238Y-131000571D01*
X146288476Y-130905333D01*
X146336095Y-130810095D01*
G04 #@! TO.C,Q2*
X174069619Y-130476761D02*
X174022000Y-130381523D01*
X173926761Y-130286285D01*
X173783904Y-130143428D01*
X173736285Y-130048190D01*
X173736285Y-129952952D01*
X173974380Y-130000571D02*
X173926761Y-129905333D01*
X173831523Y-129810095D01*
X173641047Y-129762476D01*
X173307714Y-129762476D01*
X173117238Y-129810095D01*
X173022000Y-129905333D01*
X172974380Y-130000571D01*
X172974380Y-130191047D01*
X173022000Y-130286285D01*
X173117238Y-130381523D01*
X173307714Y-130429142D01*
X173641047Y-130429142D01*
X173831523Y-130381523D01*
X173926761Y-130286285D01*
X173974380Y-130191047D01*
X173974380Y-130000571D01*
X173069619Y-130810095D02*
X173022000Y-130857714D01*
X172974380Y-130952952D01*
X172974380Y-131191047D01*
X173022000Y-131286285D01*
X173069619Y-131333904D01*
X173164857Y-131381523D01*
X173260095Y-131381523D01*
X173402952Y-131333904D01*
X173974380Y-130762476D01*
X173974380Y-131381523D01*
G04 #@! TO.C,Q3*
X156035619Y-130476761D02*
X155988000Y-130381523D01*
X155892761Y-130286285D01*
X155749904Y-130143428D01*
X155702285Y-130048190D01*
X155702285Y-129952952D01*
X155940380Y-130000571D02*
X155892761Y-129905333D01*
X155797523Y-129810095D01*
X155607047Y-129762476D01*
X155273714Y-129762476D01*
X155083238Y-129810095D01*
X154988000Y-129905333D01*
X154940380Y-130000571D01*
X154940380Y-130191047D01*
X154988000Y-130286285D01*
X155083238Y-130381523D01*
X155273714Y-130429142D01*
X155607047Y-130429142D01*
X155797523Y-130381523D01*
X155892761Y-130286285D01*
X155940380Y-130191047D01*
X155940380Y-130000571D01*
X154940380Y-130762476D02*
X154940380Y-131381523D01*
X155321333Y-131048190D01*
X155321333Y-131191047D01*
X155368952Y-131286285D01*
X155416571Y-131333904D01*
X155511809Y-131381523D01*
X155749904Y-131381523D01*
X155845142Y-131333904D01*
X155892761Y-131286285D01*
X155940380Y-131191047D01*
X155940380Y-130905333D01*
X155892761Y-130810095D01*
X155845142Y-130762476D01*
G04 #@! TO.C,Q4*
X165179619Y-130476761D02*
X165132000Y-130381523D01*
X165036761Y-130286285D01*
X164893904Y-130143428D01*
X164846285Y-130048190D01*
X164846285Y-129952952D01*
X165084380Y-130000571D02*
X165036761Y-129905333D01*
X164941523Y-129810095D01*
X164751047Y-129762476D01*
X164417714Y-129762476D01*
X164227238Y-129810095D01*
X164132000Y-129905333D01*
X164084380Y-130000571D01*
X164084380Y-130191047D01*
X164132000Y-130286285D01*
X164227238Y-130381523D01*
X164417714Y-130429142D01*
X164751047Y-130429142D01*
X164941523Y-130381523D01*
X165036761Y-130286285D01*
X165084380Y-130191047D01*
X165084380Y-130000571D01*
X164417714Y-131286285D02*
X165084380Y-131286285D01*
X164036761Y-131048190D02*
X164751047Y-130810095D01*
X164751047Y-131429142D01*
G04 #@! TO.C,Q5*
X94821238Y-86693619D02*
X94916476Y-86646000D01*
X95011714Y-86550761D01*
X95154571Y-86407904D01*
X95249809Y-86360285D01*
X95345047Y-86360285D01*
X95297428Y-86598380D02*
X95392666Y-86550761D01*
X95487904Y-86455523D01*
X95535523Y-86265047D01*
X95535523Y-85931714D01*
X95487904Y-85741238D01*
X95392666Y-85646000D01*
X95297428Y-85598380D01*
X95106952Y-85598380D01*
X95011714Y-85646000D01*
X94916476Y-85741238D01*
X94868857Y-85931714D01*
X94868857Y-86265047D01*
X94916476Y-86455523D01*
X95011714Y-86550761D01*
X95106952Y-86598380D01*
X95297428Y-86598380D01*
X93964095Y-85598380D02*
X94440285Y-85598380D01*
X94487904Y-86074571D01*
X94440285Y-86026952D01*
X94345047Y-85979333D01*
X94106952Y-85979333D01*
X94011714Y-86026952D01*
X93964095Y-86074571D01*
X93916476Y-86169809D01*
X93916476Y-86407904D01*
X93964095Y-86503142D01*
X94011714Y-86550761D01*
X94106952Y-86598380D01*
X94345047Y-86598380D01*
X94440285Y-86550761D01*
X94487904Y-86503142D01*
G04 #@! TO.C,Q6*
X94821238Y-77549619D02*
X94916476Y-77502000D01*
X95011714Y-77406761D01*
X95154571Y-77263904D01*
X95249809Y-77216285D01*
X95345047Y-77216285D01*
X95297428Y-77454380D02*
X95392666Y-77406761D01*
X95487904Y-77311523D01*
X95535523Y-77121047D01*
X95535523Y-76787714D01*
X95487904Y-76597238D01*
X95392666Y-76502000D01*
X95297428Y-76454380D01*
X95106952Y-76454380D01*
X95011714Y-76502000D01*
X94916476Y-76597238D01*
X94868857Y-76787714D01*
X94868857Y-77121047D01*
X94916476Y-77311523D01*
X95011714Y-77406761D01*
X95106952Y-77454380D01*
X95297428Y-77454380D01*
X94011714Y-76454380D02*
X94202190Y-76454380D01*
X94297428Y-76502000D01*
X94345047Y-76549619D01*
X94440285Y-76692476D01*
X94487904Y-76882952D01*
X94487904Y-77263904D01*
X94440285Y-77359142D01*
X94392666Y-77406761D01*
X94297428Y-77454380D01*
X94106952Y-77454380D01*
X94011714Y-77406761D01*
X93964095Y-77359142D01*
X93916476Y-77263904D01*
X93916476Y-77025809D01*
X93964095Y-76930571D01*
X94011714Y-76882952D01*
X94106952Y-76835333D01*
X94297428Y-76835333D01*
X94392666Y-76882952D01*
X94440285Y-76930571D01*
X94487904Y-77025809D01*
G04 #@! TO.C,Q7*
X94821238Y-95583619D02*
X94916476Y-95536000D01*
X95011714Y-95440761D01*
X95154571Y-95297904D01*
X95249809Y-95250285D01*
X95345047Y-95250285D01*
X95297428Y-95488380D02*
X95392666Y-95440761D01*
X95487904Y-95345523D01*
X95535523Y-95155047D01*
X95535523Y-94821714D01*
X95487904Y-94631238D01*
X95392666Y-94536000D01*
X95297428Y-94488380D01*
X95106952Y-94488380D01*
X95011714Y-94536000D01*
X94916476Y-94631238D01*
X94868857Y-94821714D01*
X94868857Y-95155047D01*
X94916476Y-95345523D01*
X95011714Y-95440761D01*
X95106952Y-95488380D01*
X95297428Y-95488380D01*
X94535523Y-94488380D02*
X93868857Y-94488380D01*
X94297428Y-95488380D01*
G04 #@! TO.C,Q8*
X138047619Y-131904761D02*
X138000000Y-131809523D01*
X137904761Y-131714285D01*
X137761904Y-131571428D01*
X137714285Y-131476190D01*
X137714285Y-131380952D01*
X137952380Y-131428571D02*
X137904761Y-131333333D01*
X137809523Y-131238095D01*
X137619047Y-131190476D01*
X137285714Y-131190476D01*
X137095238Y-131238095D01*
X137000000Y-131333333D01*
X136952380Y-131428571D01*
X136952380Y-131619047D01*
X137000000Y-131714285D01*
X137095238Y-131809523D01*
X137285714Y-131857142D01*
X137619047Y-131857142D01*
X137809523Y-131809523D01*
X137904761Y-131714285D01*
X137952380Y-131619047D01*
X137952380Y-131428571D01*
X137380952Y-132428571D02*
X137333333Y-132333333D01*
X137285714Y-132285714D01*
X137190476Y-132238095D01*
X137142857Y-132238095D01*
X137047619Y-132285714D01*
X137000000Y-132333333D01*
X136952380Y-132428571D01*
X136952380Y-132619047D01*
X137000000Y-132714285D01*
X137047619Y-132761904D01*
X137142857Y-132809523D01*
X137190476Y-132809523D01*
X137285714Y-132761904D01*
X137333333Y-132714285D01*
X137380952Y-132619047D01*
X137380952Y-132428571D01*
X137428571Y-132333333D01*
X137476190Y-132285714D01*
X137571428Y-132238095D01*
X137761904Y-132238095D01*
X137857142Y-132285714D01*
X137904761Y-132333333D01*
X137952380Y-132428571D01*
X137952380Y-132619047D01*
X137904761Y-132714285D01*
X137857142Y-132761904D01*
X137761904Y-132809523D01*
X137571428Y-132809523D01*
X137476190Y-132761904D01*
X137428571Y-132714285D01*
X137380952Y-132619047D01*
G04 #@! TO.C,Q9*
X94853238Y-120033619D02*
X94948476Y-119986000D01*
X95043714Y-119890761D01*
X95186571Y-119747904D01*
X95281809Y-119700285D01*
X95377047Y-119700285D01*
X95329428Y-119938380D02*
X95424666Y-119890761D01*
X95519904Y-119795523D01*
X95567523Y-119605047D01*
X95567523Y-119271714D01*
X95519904Y-119081238D01*
X95424666Y-118986000D01*
X95329428Y-118938380D01*
X95138952Y-118938380D01*
X95043714Y-118986000D01*
X94948476Y-119081238D01*
X94900857Y-119271714D01*
X94900857Y-119605047D01*
X94948476Y-119795523D01*
X95043714Y-119890761D01*
X95138952Y-119938380D01*
X95329428Y-119938380D01*
X94424666Y-119938380D02*
X94234190Y-119938380D01*
X94138952Y-119890761D01*
X94091333Y-119843142D01*
X93996095Y-119700285D01*
X93948476Y-119509809D01*
X93948476Y-119128857D01*
X93996095Y-119033619D01*
X94043714Y-118986000D01*
X94138952Y-118938380D01*
X94329428Y-118938380D01*
X94424666Y-118986000D01*
X94472285Y-119033619D01*
X94519904Y-119128857D01*
X94519904Y-119366952D01*
X94472285Y-119462190D01*
X94424666Y-119509809D01*
X94329428Y-119557428D01*
X94138952Y-119557428D01*
X94043714Y-119509809D01*
X93996095Y-119462190D01*
X93948476Y-119366952D01*
G04 #@! TO.C,Q10*
X95297428Y-111585619D02*
X95392666Y-111538000D01*
X95487904Y-111442761D01*
X95630761Y-111299904D01*
X95726000Y-111252285D01*
X95821238Y-111252285D01*
X95773619Y-111490380D02*
X95868857Y-111442761D01*
X95964095Y-111347523D01*
X96011714Y-111157047D01*
X96011714Y-110823714D01*
X95964095Y-110633238D01*
X95868857Y-110538000D01*
X95773619Y-110490380D01*
X95583142Y-110490380D01*
X95487904Y-110538000D01*
X95392666Y-110633238D01*
X95345047Y-110823714D01*
X95345047Y-111157047D01*
X95392666Y-111347523D01*
X95487904Y-111442761D01*
X95583142Y-111490380D01*
X95773619Y-111490380D01*
X94392666Y-111490380D02*
X94964095Y-111490380D01*
X94678380Y-111490380D02*
X94678380Y-110490380D01*
X94773619Y-110633238D01*
X94868857Y-110728476D01*
X94964095Y-110776095D01*
X93773619Y-110490380D02*
X93678380Y-110490380D01*
X93583142Y-110538000D01*
X93535523Y-110585619D01*
X93487904Y-110680857D01*
X93440285Y-110871333D01*
X93440285Y-111109428D01*
X93487904Y-111299904D01*
X93535523Y-111395142D01*
X93583142Y-111442761D01*
X93678380Y-111490380D01*
X93773619Y-111490380D01*
X93868857Y-111442761D01*
X93916476Y-111395142D01*
X93964095Y-111299904D01*
X94011714Y-111109428D01*
X94011714Y-110871333D01*
X93964095Y-110680857D01*
X93916476Y-110585619D01*
X93868857Y-110538000D01*
X93773619Y-110490380D01*
G04 #@! TO.C,Q11*
X95329428Y-128415619D02*
X95424666Y-128368000D01*
X95519904Y-128272761D01*
X95662761Y-128129904D01*
X95758000Y-128082285D01*
X95853238Y-128082285D01*
X95805619Y-128320380D02*
X95900857Y-128272761D01*
X95996095Y-128177523D01*
X96043714Y-127987047D01*
X96043714Y-127653714D01*
X95996095Y-127463238D01*
X95900857Y-127368000D01*
X95805619Y-127320380D01*
X95615142Y-127320380D01*
X95519904Y-127368000D01*
X95424666Y-127463238D01*
X95377047Y-127653714D01*
X95377047Y-127987047D01*
X95424666Y-128177523D01*
X95519904Y-128272761D01*
X95615142Y-128320380D01*
X95805619Y-128320380D01*
X94424666Y-128320380D02*
X94996095Y-128320380D01*
X94710380Y-128320380D02*
X94710380Y-127320380D01*
X94805619Y-127463238D01*
X94900857Y-127558476D01*
X94996095Y-127606095D01*
X93472285Y-128320380D02*
X94043714Y-128320380D01*
X93758000Y-128320380D02*
X93758000Y-127320380D01*
X93853238Y-127463238D01*
X93948476Y-127558476D01*
X94043714Y-127606095D01*
G04 #@! TO.C,Q12*
X95297428Y-103047619D02*
X95392666Y-103000000D01*
X95487904Y-102904761D01*
X95630761Y-102761904D01*
X95726000Y-102714285D01*
X95821238Y-102714285D01*
X95773619Y-102952380D02*
X95868857Y-102904761D01*
X95964095Y-102809523D01*
X96011714Y-102619047D01*
X96011714Y-102285714D01*
X95964095Y-102095238D01*
X95868857Y-102000000D01*
X95773619Y-101952380D01*
X95583142Y-101952380D01*
X95487904Y-102000000D01*
X95392666Y-102095238D01*
X95345047Y-102285714D01*
X95345047Y-102619047D01*
X95392666Y-102809523D01*
X95487904Y-102904761D01*
X95583142Y-102952380D01*
X95773619Y-102952380D01*
X94392666Y-102952380D02*
X94964095Y-102952380D01*
X94678380Y-102952380D02*
X94678380Y-101952380D01*
X94773619Y-102095238D01*
X94868857Y-102190476D01*
X94964095Y-102238095D01*
X94011714Y-102047619D02*
X93964095Y-102000000D01*
X93868857Y-101952380D01*
X93630761Y-101952380D01*
X93535523Y-102000000D01*
X93487904Y-102047619D01*
X93440285Y-102142857D01*
X93440285Y-102238095D01*
X93487904Y-102380952D01*
X94059333Y-102952380D01*
X93440285Y-102952380D01*
G04 #@! TO.C,Q13*
X111585619Y-129222571D02*
X111538000Y-129127333D01*
X111442761Y-129032095D01*
X111299904Y-128889238D01*
X111252285Y-128794000D01*
X111252285Y-128698761D01*
X111490380Y-128746380D02*
X111442761Y-128651142D01*
X111347523Y-128555904D01*
X111157047Y-128508285D01*
X110823714Y-128508285D01*
X110633238Y-128555904D01*
X110538000Y-128651142D01*
X110490380Y-128746380D01*
X110490380Y-128936857D01*
X110538000Y-129032095D01*
X110633238Y-129127333D01*
X110823714Y-129174952D01*
X111157047Y-129174952D01*
X111347523Y-129127333D01*
X111442761Y-129032095D01*
X111490380Y-128936857D01*
X111490380Y-128746380D01*
X111490380Y-130127333D02*
X111490380Y-129555904D01*
X111490380Y-129841619D02*
X110490380Y-129841619D01*
X110633238Y-129746380D01*
X110728476Y-129651142D01*
X110776095Y-129555904D01*
X110490380Y-130460666D02*
X110490380Y-131079714D01*
X110871333Y-130746380D01*
X110871333Y-130889238D01*
X110918952Y-130984476D01*
X110966571Y-131032095D01*
X111061809Y-131079714D01*
X111299904Y-131079714D01*
X111395142Y-131032095D01*
X111442761Y-130984476D01*
X111490380Y-130889238D01*
X111490380Y-130603523D01*
X111442761Y-130508285D01*
X111395142Y-130460666D01*
G04 #@! TO.C,Q14*
X105997619Y-129238571D02*
X105950000Y-129143333D01*
X105854761Y-129048095D01*
X105711904Y-128905238D01*
X105664285Y-128810000D01*
X105664285Y-128714761D01*
X105902380Y-128762380D02*
X105854761Y-128667142D01*
X105759523Y-128571904D01*
X105569047Y-128524285D01*
X105235714Y-128524285D01*
X105045238Y-128571904D01*
X104950000Y-128667142D01*
X104902380Y-128762380D01*
X104902380Y-128952857D01*
X104950000Y-129048095D01*
X105045238Y-129143333D01*
X105235714Y-129190952D01*
X105569047Y-129190952D01*
X105759523Y-129143333D01*
X105854761Y-129048095D01*
X105902380Y-128952857D01*
X105902380Y-128762380D01*
X105902380Y-130143333D02*
X105902380Y-129571904D01*
X105902380Y-129857619D02*
X104902380Y-129857619D01*
X105045238Y-129762380D01*
X105140476Y-129667142D01*
X105188095Y-129571904D01*
X105235714Y-131000476D02*
X105902380Y-131000476D01*
X104854761Y-130762380D02*
X105569047Y-130524285D01*
X105569047Y-131143333D01*
G04 #@! TO.C,Q15*
X124047619Y-129428571D02*
X124000000Y-129333333D01*
X123904761Y-129238095D01*
X123761904Y-129095238D01*
X123714285Y-129000000D01*
X123714285Y-128904761D01*
X123952380Y-128952380D02*
X123904761Y-128857142D01*
X123809523Y-128761904D01*
X123619047Y-128714285D01*
X123285714Y-128714285D01*
X123095238Y-128761904D01*
X123000000Y-128857142D01*
X122952380Y-128952380D01*
X122952380Y-129142857D01*
X123000000Y-129238095D01*
X123095238Y-129333333D01*
X123285714Y-129380952D01*
X123619047Y-129380952D01*
X123809523Y-129333333D01*
X123904761Y-129238095D01*
X123952380Y-129142857D01*
X123952380Y-128952380D01*
X123952380Y-130333333D02*
X123952380Y-129761904D01*
X123952380Y-130047619D02*
X122952380Y-130047619D01*
X123095238Y-129952380D01*
X123190476Y-129857142D01*
X123238095Y-129761904D01*
X122952380Y-131238095D02*
X122952380Y-130761904D01*
X123428571Y-130714285D01*
X123380952Y-130761904D01*
X123333333Y-130857142D01*
X123333333Y-131095238D01*
X123380952Y-131190476D01*
X123428571Y-131238095D01*
X123523809Y-131285714D01*
X123761904Y-131285714D01*
X123857142Y-131238095D01*
X123904761Y-131190476D01*
X123952380Y-131095238D01*
X123952380Y-130857142D01*
X123904761Y-130761904D01*
X123857142Y-130714285D01*
G04 #@! TO.C,Q16*
X98189619Y-129714571D02*
X98142000Y-129619333D01*
X98046761Y-129524095D01*
X97903904Y-129381238D01*
X97856285Y-129286000D01*
X97856285Y-129190761D01*
X98094380Y-129238380D02*
X98046761Y-129143142D01*
X97951523Y-129047904D01*
X97761047Y-129000285D01*
X97427714Y-129000285D01*
X97237238Y-129047904D01*
X97142000Y-129143142D01*
X97094380Y-129238380D01*
X97094380Y-129428857D01*
X97142000Y-129524095D01*
X97237238Y-129619333D01*
X97427714Y-129666952D01*
X97761047Y-129666952D01*
X97951523Y-129619333D01*
X98046761Y-129524095D01*
X98094380Y-129428857D01*
X98094380Y-129238380D01*
X98094380Y-130619333D02*
X98094380Y-130047904D01*
X98094380Y-130333619D02*
X97094380Y-130333619D01*
X97237238Y-130238380D01*
X97332476Y-130143142D01*
X97380095Y-130047904D01*
X97094380Y-131476476D02*
X97094380Y-131286000D01*
X97142000Y-131190761D01*
X97189619Y-131143142D01*
X97332476Y-131047904D01*
X97522952Y-131000285D01*
X97903904Y-131000285D01*
X97999142Y-131047904D01*
X98046761Y-131095523D01*
X98094380Y-131190761D01*
X98094380Y-131381238D01*
X98046761Y-131476476D01*
X97999142Y-131524095D01*
X97903904Y-131571714D01*
X97665809Y-131571714D01*
X97570571Y-131524095D01*
X97522952Y-131476476D01*
X97475333Y-131381238D01*
X97475333Y-131190761D01*
X97522952Y-131095523D01*
X97570571Y-131047904D01*
X97665809Y-131000285D01*
G04 #@! TO.C,R7*
X164363666Y-83350380D02*
X164697000Y-82874190D01*
X164935095Y-83350380D02*
X164935095Y-82350380D01*
X164554142Y-82350380D01*
X164458904Y-82398000D01*
X164411285Y-82445619D01*
X164363666Y-82540857D01*
X164363666Y-82683714D01*
X164411285Y-82778952D01*
X164458904Y-82826571D01*
X164554142Y-82874190D01*
X164935095Y-82874190D01*
X164030333Y-82350380D02*
X163363666Y-82350380D01*
X163792238Y-83350380D01*
G04 #@! TO.C,R14*
X164839857Y-75730380D02*
X165173190Y-75254190D01*
X165411285Y-75730380D02*
X165411285Y-74730380D01*
X165030333Y-74730380D01*
X164935095Y-74778000D01*
X164887476Y-74825619D01*
X164839857Y-74920857D01*
X164839857Y-75063714D01*
X164887476Y-75158952D01*
X164935095Y-75206571D01*
X165030333Y-75254190D01*
X165411285Y-75254190D01*
X163887476Y-75730380D02*
X164458904Y-75730380D01*
X164173190Y-75730380D02*
X164173190Y-74730380D01*
X164268428Y-74873238D01*
X164363666Y-74968476D01*
X164458904Y-75016095D01*
X163030333Y-75063714D02*
X163030333Y-75730380D01*
X163268428Y-74682761D02*
X163506523Y-75397047D01*
X162887476Y-75397047D01*
G04 #@! TO.C,R15*
X164839857Y-78270380D02*
X165173190Y-77794190D01*
X165411285Y-78270380D02*
X165411285Y-77270380D01*
X165030333Y-77270380D01*
X164935095Y-77318000D01*
X164887476Y-77365619D01*
X164839857Y-77460857D01*
X164839857Y-77603714D01*
X164887476Y-77698952D01*
X164935095Y-77746571D01*
X165030333Y-77794190D01*
X165411285Y-77794190D01*
X163887476Y-78270380D02*
X164458904Y-78270380D01*
X164173190Y-78270380D02*
X164173190Y-77270380D01*
X164268428Y-77413238D01*
X164363666Y-77508476D01*
X164458904Y-77556095D01*
X162982714Y-77270380D02*
X163458904Y-77270380D01*
X163506523Y-77746571D01*
X163458904Y-77698952D01*
X163363666Y-77651333D01*
X163125571Y-77651333D01*
X163030333Y-77698952D01*
X162982714Y-77746571D01*
X162935095Y-77841809D01*
X162935095Y-78079904D01*
X162982714Y-78175142D01*
X163030333Y-78222761D01*
X163125571Y-78270380D01*
X163363666Y-78270380D01*
X163458904Y-78222761D01*
X163506523Y-78175142D01*
G04 #@! TO.C,R16*
X164839857Y-80810380D02*
X165173190Y-80334190D01*
X165411285Y-80810380D02*
X165411285Y-79810380D01*
X165030333Y-79810380D01*
X164935095Y-79858000D01*
X164887476Y-79905619D01*
X164839857Y-80000857D01*
X164839857Y-80143714D01*
X164887476Y-80238952D01*
X164935095Y-80286571D01*
X165030333Y-80334190D01*
X165411285Y-80334190D01*
X163887476Y-80810380D02*
X164458904Y-80810380D01*
X164173190Y-80810380D02*
X164173190Y-79810380D01*
X164268428Y-79953238D01*
X164363666Y-80048476D01*
X164458904Y-80096095D01*
X163030333Y-79810380D02*
X163220809Y-79810380D01*
X163316047Y-79858000D01*
X163363666Y-79905619D01*
X163458904Y-80048476D01*
X163506523Y-80238952D01*
X163506523Y-80619904D01*
X163458904Y-80715142D01*
X163411285Y-80762761D01*
X163316047Y-80810380D01*
X163125571Y-80810380D01*
X163030333Y-80762761D01*
X162982714Y-80715142D01*
X162935095Y-80619904D01*
X162935095Y-80381809D01*
X162982714Y-80286571D01*
X163030333Y-80238952D01*
X163125571Y-80191333D01*
X163316047Y-80191333D01*
X163411285Y-80238952D01*
X163458904Y-80286571D01*
X163506523Y-80381809D01*
G04 #@! TO.C,R17*
X147849857Y-126530380D02*
X148183190Y-126054190D01*
X148421285Y-126530380D02*
X148421285Y-125530380D01*
X148040333Y-125530380D01*
X147945095Y-125578000D01*
X147897476Y-125625619D01*
X147849857Y-125720857D01*
X147849857Y-125863714D01*
X147897476Y-125958952D01*
X147945095Y-126006571D01*
X148040333Y-126054190D01*
X148421285Y-126054190D01*
X146897476Y-126530380D02*
X147468904Y-126530380D01*
X147183190Y-126530380D02*
X147183190Y-125530380D01*
X147278428Y-125673238D01*
X147373666Y-125768476D01*
X147468904Y-125816095D01*
X146564142Y-125530380D02*
X145897476Y-125530380D01*
X146326047Y-126530380D01*
G04 #@! TO.C,R18*
X174773857Y-126530380D02*
X175107190Y-126054190D01*
X175345285Y-126530380D02*
X175345285Y-125530380D01*
X174964333Y-125530380D01*
X174869095Y-125578000D01*
X174821476Y-125625619D01*
X174773857Y-125720857D01*
X174773857Y-125863714D01*
X174821476Y-125958952D01*
X174869095Y-126006571D01*
X174964333Y-126054190D01*
X175345285Y-126054190D01*
X173821476Y-126530380D02*
X174392904Y-126530380D01*
X174107190Y-126530380D02*
X174107190Y-125530380D01*
X174202428Y-125673238D01*
X174297666Y-125768476D01*
X174392904Y-125816095D01*
X173250047Y-125958952D02*
X173345285Y-125911333D01*
X173392904Y-125863714D01*
X173440523Y-125768476D01*
X173440523Y-125720857D01*
X173392904Y-125625619D01*
X173345285Y-125578000D01*
X173250047Y-125530380D01*
X173059571Y-125530380D01*
X172964333Y-125578000D01*
X172916714Y-125625619D01*
X172869095Y-125720857D01*
X172869095Y-125768476D01*
X172916714Y-125863714D01*
X172964333Y-125911333D01*
X173059571Y-125958952D01*
X173250047Y-125958952D01*
X173345285Y-126006571D01*
X173392904Y-126054190D01*
X173440523Y-126149428D01*
X173440523Y-126339904D01*
X173392904Y-126435142D01*
X173345285Y-126482761D01*
X173250047Y-126530380D01*
X173059571Y-126530380D01*
X172964333Y-126482761D01*
X172916714Y-126435142D01*
X172869095Y-126339904D01*
X172869095Y-126149428D01*
X172916714Y-126054190D01*
X172964333Y-126006571D01*
X173059571Y-125958952D01*
G04 #@! TO.C,R19*
X156739857Y-126530380D02*
X157073190Y-126054190D01*
X157311285Y-126530380D02*
X157311285Y-125530380D01*
X156930333Y-125530380D01*
X156835095Y-125578000D01*
X156787476Y-125625619D01*
X156739857Y-125720857D01*
X156739857Y-125863714D01*
X156787476Y-125958952D01*
X156835095Y-126006571D01*
X156930333Y-126054190D01*
X157311285Y-126054190D01*
X155787476Y-126530380D02*
X156358904Y-126530380D01*
X156073190Y-126530380D02*
X156073190Y-125530380D01*
X156168428Y-125673238D01*
X156263666Y-125768476D01*
X156358904Y-125816095D01*
X155311285Y-126530380D02*
X155120809Y-126530380D01*
X155025571Y-126482761D01*
X154977952Y-126435142D01*
X154882714Y-126292285D01*
X154835095Y-126101809D01*
X154835095Y-125720857D01*
X154882714Y-125625619D01*
X154930333Y-125578000D01*
X155025571Y-125530380D01*
X155216047Y-125530380D01*
X155311285Y-125578000D01*
X155358904Y-125625619D01*
X155406523Y-125720857D01*
X155406523Y-125958952D01*
X155358904Y-126054190D01*
X155311285Y-126101809D01*
X155216047Y-126149428D01*
X155025571Y-126149428D01*
X154930333Y-126101809D01*
X154882714Y-126054190D01*
X154835095Y-125958952D01*
G04 #@! TO.C,R20*
X165883857Y-126530380D02*
X166217190Y-126054190D01*
X166455285Y-126530380D02*
X166455285Y-125530380D01*
X166074333Y-125530380D01*
X165979095Y-125578000D01*
X165931476Y-125625619D01*
X165883857Y-125720857D01*
X165883857Y-125863714D01*
X165931476Y-125958952D01*
X165979095Y-126006571D01*
X166074333Y-126054190D01*
X166455285Y-126054190D01*
X165502904Y-125625619D02*
X165455285Y-125578000D01*
X165360047Y-125530380D01*
X165121952Y-125530380D01*
X165026714Y-125578000D01*
X164979095Y-125625619D01*
X164931476Y-125720857D01*
X164931476Y-125816095D01*
X164979095Y-125958952D01*
X165550523Y-126530380D01*
X164931476Y-126530380D01*
X164312428Y-125530380D02*
X164217190Y-125530380D01*
X164121952Y-125578000D01*
X164074333Y-125625619D01*
X164026714Y-125720857D01*
X163979095Y-125911333D01*
X163979095Y-126149428D01*
X164026714Y-126339904D01*
X164074333Y-126435142D01*
X164121952Y-126482761D01*
X164217190Y-126530380D01*
X164312428Y-126530380D01*
X164407666Y-126482761D01*
X164455285Y-126435142D01*
X164502904Y-126339904D01*
X164550523Y-126149428D01*
X164550523Y-125911333D01*
X164502904Y-125720857D01*
X164455285Y-125625619D01*
X164407666Y-125578000D01*
X164312428Y-125530380D01*
G04 #@! TO.C,R21*
X134387857Y-127292380D02*
X134721190Y-126816190D01*
X134959285Y-127292380D02*
X134959285Y-126292380D01*
X134578333Y-126292380D01*
X134483095Y-126340000D01*
X134435476Y-126387619D01*
X134387857Y-126482857D01*
X134387857Y-126625714D01*
X134435476Y-126720952D01*
X134483095Y-126768571D01*
X134578333Y-126816190D01*
X134959285Y-126816190D01*
X134006904Y-126387619D02*
X133959285Y-126340000D01*
X133864047Y-126292380D01*
X133625952Y-126292380D01*
X133530714Y-126340000D01*
X133483095Y-126387619D01*
X133435476Y-126482857D01*
X133435476Y-126578095D01*
X133483095Y-126720952D01*
X134054523Y-127292380D01*
X133435476Y-127292380D01*
X132483095Y-127292380D02*
X133054523Y-127292380D01*
X132768809Y-127292380D02*
X132768809Y-126292380D01*
X132864047Y-126435238D01*
X132959285Y-126530476D01*
X133054523Y-126578095D01*
G04 #@! TO.C,R22*
X136419857Y-113068380D02*
X136753190Y-112592190D01*
X136991285Y-113068380D02*
X136991285Y-112068380D01*
X136610333Y-112068380D01*
X136515095Y-112116000D01*
X136467476Y-112163619D01*
X136419857Y-112258857D01*
X136419857Y-112401714D01*
X136467476Y-112496952D01*
X136515095Y-112544571D01*
X136610333Y-112592190D01*
X136991285Y-112592190D01*
X136038904Y-112163619D02*
X135991285Y-112116000D01*
X135896047Y-112068380D01*
X135657952Y-112068380D01*
X135562714Y-112116000D01*
X135515095Y-112163619D01*
X135467476Y-112258857D01*
X135467476Y-112354095D01*
X135515095Y-112496952D01*
X136086523Y-113068380D01*
X135467476Y-113068380D01*
X135086523Y-112163619D02*
X135038904Y-112116000D01*
X134943666Y-112068380D01*
X134705571Y-112068380D01*
X134610333Y-112116000D01*
X134562714Y-112163619D01*
X134515095Y-112258857D01*
X134515095Y-112354095D01*
X134562714Y-112496952D01*
X135134142Y-113068380D01*
X134515095Y-113068380D01*
G04 #@! TO.C,R23*
X134387857Y-125514380D02*
X134721190Y-125038190D01*
X134959285Y-125514380D02*
X134959285Y-124514380D01*
X134578333Y-124514380D01*
X134483095Y-124562000D01*
X134435476Y-124609619D01*
X134387857Y-124704857D01*
X134387857Y-124847714D01*
X134435476Y-124942952D01*
X134483095Y-124990571D01*
X134578333Y-125038190D01*
X134959285Y-125038190D01*
X134006904Y-124609619D02*
X133959285Y-124562000D01*
X133864047Y-124514380D01*
X133625952Y-124514380D01*
X133530714Y-124562000D01*
X133483095Y-124609619D01*
X133435476Y-124704857D01*
X133435476Y-124800095D01*
X133483095Y-124942952D01*
X134054523Y-125514380D01*
X133435476Y-125514380D01*
X133102142Y-124514380D02*
X132483095Y-124514380D01*
X132816428Y-124895333D01*
X132673571Y-124895333D01*
X132578333Y-124942952D01*
X132530714Y-124990571D01*
X132483095Y-125085809D01*
X132483095Y-125323904D01*
X132530714Y-125419142D01*
X132578333Y-125466761D01*
X132673571Y-125514380D01*
X132959285Y-125514380D01*
X133054523Y-125466761D01*
X133102142Y-125419142D01*
G04 #@! TO.C,R24*
X136391857Y-114846380D02*
X136725190Y-114370190D01*
X136963285Y-114846380D02*
X136963285Y-113846380D01*
X136582333Y-113846380D01*
X136487095Y-113894000D01*
X136439476Y-113941619D01*
X136391857Y-114036857D01*
X136391857Y-114179714D01*
X136439476Y-114274952D01*
X136487095Y-114322571D01*
X136582333Y-114370190D01*
X136963285Y-114370190D01*
X136010904Y-113941619D02*
X135963285Y-113894000D01*
X135868047Y-113846380D01*
X135629952Y-113846380D01*
X135534714Y-113894000D01*
X135487095Y-113941619D01*
X135439476Y-114036857D01*
X135439476Y-114132095D01*
X135487095Y-114274952D01*
X136058523Y-114846380D01*
X135439476Y-114846380D01*
X134582333Y-114179714D02*
X134582333Y-114846380D01*
X134820428Y-113798761D02*
X135058523Y-114513047D01*
X134439476Y-114513047D01*
G04 #@! TO.C,R25*
X134387857Y-123736380D02*
X134721190Y-123260190D01*
X134959285Y-123736380D02*
X134959285Y-122736380D01*
X134578333Y-122736380D01*
X134483095Y-122784000D01*
X134435476Y-122831619D01*
X134387857Y-122926857D01*
X134387857Y-123069714D01*
X134435476Y-123164952D01*
X134483095Y-123212571D01*
X134578333Y-123260190D01*
X134959285Y-123260190D01*
X134006904Y-122831619D02*
X133959285Y-122784000D01*
X133864047Y-122736380D01*
X133625952Y-122736380D01*
X133530714Y-122784000D01*
X133483095Y-122831619D01*
X133435476Y-122926857D01*
X133435476Y-123022095D01*
X133483095Y-123164952D01*
X134054523Y-123736380D01*
X133435476Y-123736380D01*
X132530714Y-122736380D02*
X133006904Y-122736380D01*
X133054523Y-123212571D01*
X133006904Y-123164952D01*
X132911666Y-123117333D01*
X132673571Y-123117333D01*
X132578333Y-123164952D01*
X132530714Y-123212571D01*
X132483095Y-123307809D01*
X132483095Y-123545904D01*
X132530714Y-123641142D01*
X132578333Y-123688761D01*
X132673571Y-123736380D01*
X132911666Y-123736380D01*
X133006904Y-123688761D01*
X133054523Y-123641142D01*
G04 #@! TO.C,R26*
X136419857Y-116624380D02*
X136753190Y-116148190D01*
X136991285Y-116624380D02*
X136991285Y-115624380D01*
X136610333Y-115624380D01*
X136515095Y-115672000D01*
X136467476Y-115719619D01*
X136419857Y-115814857D01*
X136419857Y-115957714D01*
X136467476Y-116052952D01*
X136515095Y-116100571D01*
X136610333Y-116148190D01*
X136991285Y-116148190D01*
X136038904Y-115719619D02*
X135991285Y-115672000D01*
X135896047Y-115624380D01*
X135657952Y-115624380D01*
X135562714Y-115672000D01*
X135515095Y-115719619D01*
X135467476Y-115814857D01*
X135467476Y-115910095D01*
X135515095Y-116052952D01*
X136086523Y-116624380D01*
X135467476Y-116624380D01*
X134610333Y-115624380D02*
X134800809Y-115624380D01*
X134896047Y-115672000D01*
X134943666Y-115719619D01*
X135038904Y-115862476D01*
X135086523Y-116052952D01*
X135086523Y-116433904D01*
X135038904Y-116529142D01*
X134991285Y-116576761D01*
X134896047Y-116624380D01*
X134705571Y-116624380D01*
X134610333Y-116576761D01*
X134562714Y-116529142D01*
X134515095Y-116433904D01*
X134515095Y-116195809D01*
X134562714Y-116100571D01*
X134610333Y-116052952D01*
X134705571Y-116005333D01*
X134896047Y-116005333D01*
X134991285Y-116052952D01*
X135038904Y-116100571D01*
X135086523Y-116195809D01*
G04 #@! TO.C,R27*
X140709857Y-127292380D02*
X141043190Y-126816190D01*
X141281285Y-127292380D02*
X141281285Y-126292380D01*
X140900333Y-126292380D01*
X140805095Y-126340000D01*
X140757476Y-126387619D01*
X140709857Y-126482857D01*
X140709857Y-126625714D01*
X140757476Y-126720952D01*
X140805095Y-126768571D01*
X140900333Y-126816190D01*
X141281285Y-126816190D01*
X140328904Y-126387619D02*
X140281285Y-126340000D01*
X140186047Y-126292380D01*
X139947952Y-126292380D01*
X139852714Y-126340000D01*
X139805095Y-126387619D01*
X139757476Y-126482857D01*
X139757476Y-126578095D01*
X139805095Y-126720952D01*
X140376523Y-127292380D01*
X139757476Y-127292380D01*
X139424142Y-126292380D02*
X138757476Y-126292380D01*
X139186047Y-127292380D01*
G04 #@! TO.C,R28*
X143277857Y-113068380D02*
X143611190Y-112592190D01*
X143849285Y-113068380D02*
X143849285Y-112068380D01*
X143468333Y-112068380D01*
X143373095Y-112116000D01*
X143325476Y-112163619D01*
X143277857Y-112258857D01*
X143277857Y-112401714D01*
X143325476Y-112496952D01*
X143373095Y-112544571D01*
X143468333Y-112592190D01*
X143849285Y-112592190D01*
X142896904Y-112163619D02*
X142849285Y-112116000D01*
X142754047Y-112068380D01*
X142515952Y-112068380D01*
X142420714Y-112116000D01*
X142373095Y-112163619D01*
X142325476Y-112258857D01*
X142325476Y-112354095D01*
X142373095Y-112496952D01*
X142944523Y-113068380D01*
X142325476Y-113068380D01*
X141754047Y-112496952D02*
X141849285Y-112449333D01*
X141896904Y-112401714D01*
X141944523Y-112306476D01*
X141944523Y-112258857D01*
X141896904Y-112163619D01*
X141849285Y-112116000D01*
X141754047Y-112068380D01*
X141563571Y-112068380D01*
X141468333Y-112116000D01*
X141420714Y-112163619D01*
X141373095Y-112258857D01*
X141373095Y-112306476D01*
X141420714Y-112401714D01*
X141468333Y-112449333D01*
X141563571Y-112496952D01*
X141754047Y-112496952D01*
X141849285Y-112544571D01*
X141896904Y-112592190D01*
X141944523Y-112687428D01*
X141944523Y-112877904D01*
X141896904Y-112973142D01*
X141849285Y-113020761D01*
X141754047Y-113068380D01*
X141563571Y-113068380D01*
X141468333Y-113020761D01*
X141420714Y-112973142D01*
X141373095Y-112877904D01*
X141373095Y-112687428D01*
X141420714Y-112592190D01*
X141468333Y-112544571D01*
X141563571Y-112496952D01*
G04 #@! TO.C,R29*
X140709857Y-125514380D02*
X141043190Y-125038190D01*
X141281285Y-125514380D02*
X141281285Y-124514380D01*
X140900333Y-124514380D01*
X140805095Y-124562000D01*
X140757476Y-124609619D01*
X140709857Y-124704857D01*
X140709857Y-124847714D01*
X140757476Y-124942952D01*
X140805095Y-124990571D01*
X140900333Y-125038190D01*
X141281285Y-125038190D01*
X140328904Y-124609619D02*
X140281285Y-124562000D01*
X140186047Y-124514380D01*
X139947952Y-124514380D01*
X139852714Y-124562000D01*
X139805095Y-124609619D01*
X139757476Y-124704857D01*
X139757476Y-124800095D01*
X139805095Y-124942952D01*
X140376523Y-125514380D01*
X139757476Y-125514380D01*
X139281285Y-125514380D02*
X139090809Y-125514380D01*
X138995571Y-125466761D01*
X138947952Y-125419142D01*
X138852714Y-125276285D01*
X138805095Y-125085809D01*
X138805095Y-124704857D01*
X138852714Y-124609619D01*
X138900333Y-124562000D01*
X138995571Y-124514380D01*
X139186047Y-124514380D01*
X139281285Y-124562000D01*
X139328904Y-124609619D01*
X139376523Y-124704857D01*
X139376523Y-124942952D01*
X139328904Y-125038190D01*
X139281285Y-125085809D01*
X139186047Y-125133428D01*
X138995571Y-125133428D01*
X138900333Y-125085809D01*
X138852714Y-125038190D01*
X138805095Y-124942952D01*
G04 #@! TO.C,R30*
X143249857Y-114846380D02*
X143583190Y-114370190D01*
X143821285Y-114846380D02*
X143821285Y-113846380D01*
X143440333Y-113846380D01*
X143345095Y-113894000D01*
X143297476Y-113941619D01*
X143249857Y-114036857D01*
X143249857Y-114179714D01*
X143297476Y-114274952D01*
X143345095Y-114322571D01*
X143440333Y-114370190D01*
X143821285Y-114370190D01*
X142916523Y-113846380D02*
X142297476Y-113846380D01*
X142630809Y-114227333D01*
X142487952Y-114227333D01*
X142392714Y-114274952D01*
X142345095Y-114322571D01*
X142297476Y-114417809D01*
X142297476Y-114655904D01*
X142345095Y-114751142D01*
X142392714Y-114798761D01*
X142487952Y-114846380D01*
X142773666Y-114846380D01*
X142868904Y-114798761D01*
X142916523Y-114751142D01*
X141678428Y-113846380D02*
X141583190Y-113846380D01*
X141487952Y-113894000D01*
X141440333Y-113941619D01*
X141392714Y-114036857D01*
X141345095Y-114227333D01*
X141345095Y-114465428D01*
X141392714Y-114655904D01*
X141440333Y-114751142D01*
X141487952Y-114798761D01*
X141583190Y-114846380D01*
X141678428Y-114846380D01*
X141773666Y-114798761D01*
X141821285Y-114751142D01*
X141868904Y-114655904D01*
X141916523Y-114465428D01*
X141916523Y-114227333D01*
X141868904Y-114036857D01*
X141821285Y-113941619D01*
X141773666Y-113894000D01*
X141678428Y-113846380D01*
G04 #@! TO.C,R31*
X140737857Y-123736380D02*
X141071190Y-123260190D01*
X141309285Y-123736380D02*
X141309285Y-122736380D01*
X140928333Y-122736380D01*
X140833095Y-122784000D01*
X140785476Y-122831619D01*
X140737857Y-122926857D01*
X140737857Y-123069714D01*
X140785476Y-123164952D01*
X140833095Y-123212571D01*
X140928333Y-123260190D01*
X141309285Y-123260190D01*
X140404523Y-122736380D02*
X139785476Y-122736380D01*
X140118809Y-123117333D01*
X139975952Y-123117333D01*
X139880714Y-123164952D01*
X139833095Y-123212571D01*
X139785476Y-123307809D01*
X139785476Y-123545904D01*
X139833095Y-123641142D01*
X139880714Y-123688761D01*
X139975952Y-123736380D01*
X140261666Y-123736380D01*
X140356904Y-123688761D01*
X140404523Y-123641142D01*
X138833095Y-123736380D02*
X139404523Y-123736380D01*
X139118809Y-123736380D02*
X139118809Y-122736380D01*
X139214047Y-122879238D01*
X139309285Y-122974476D01*
X139404523Y-123022095D01*
G04 #@! TO.C,R32*
X143249857Y-116624380D02*
X143583190Y-116148190D01*
X143821285Y-116624380D02*
X143821285Y-115624380D01*
X143440333Y-115624380D01*
X143345095Y-115672000D01*
X143297476Y-115719619D01*
X143249857Y-115814857D01*
X143249857Y-115957714D01*
X143297476Y-116052952D01*
X143345095Y-116100571D01*
X143440333Y-116148190D01*
X143821285Y-116148190D01*
X142916523Y-115624380D02*
X142297476Y-115624380D01*
X142630809Y-116005333D01*
X142487952Y-116005333D01*
X142392714Y-116052952D01*
X142345095Y-116100571D01*
X142297476Y-116195809D01*
X142297476Y-116433904D01*
X142345095Y-116529142D01*
X142392714Y-116576761D01*
X142487952Y-116624380D01*
X142773666Y-116624380D01*
X142868904Y-116576761D01*
X142916523Y-116529142D01*
X141916523Y-115719619D02*
X141868904Y-115672000D01*
X141773666Y-115624380D01*
X141535571Y-115624380D01*
X141440333Y-115672000D01*
X141392714Y-115719619D01*
X141345095Y-115814857D01*
X141345095Y-115910095D01*
X141392714Y-116052952D01*
X141964142Y-116624380D01*
X141345095Y-116624380D01*
G04 #@! TO.C,R69*
X100434380Y-86112142D02*
X99958190Y-85778809D01*
X100434380Y-85540714D02*
X99434380Y-85540714D01*
X99434380Y-85921666D01*
X99482000Y-86016904D01*
X99529619Y-86064523D01*
X99624857Y-86112142D01*
X99767714Y-86112142D01*
X99862952Y-86064523D01*
X99910571Y-86016904D01*
X99958190Y-85921666D01*
X99958190Y-85540714D01*
X99434380Y-86969285D02*
X99434380Y-86778809D01*
X99482000Y-86683571D01*
X99529619Y-86635952D01*
X99672476Y-86540714D01*
X99862952Y-86493095D01*
X100243904Y-86493095D01*
X100339142Y-86540714D01*
X100386761Y-86588333D01*
X100434380Y-86683571D01*
X100434380Y-86874047D01*
X100386761Y-86969285D01*
X100339142Y-87016904D01*
X100243904Y-87064523D01*
X100005809Y-87064523D01*
X99910571Y-87016904D01*
X99862952Y-86969285D01*
X99815333Y-86874047D01*
X99815333Y-86683571D01*
X99862952Y-86588333D01*
X99910571Y-86540714D01*
X100005809Y-86493095D01*
X100434380Y-87540714D02*
X100434380Y-87731190D01*
X100386761Y-87826428D01*
X100339142Y-87874047D01*
X100196285Y-87969285D01*
X100005809Y-88016904D01*
X99624857Y-88016904D01*
X99529619Y-87969285D01*
X99482000Y-87921666D01*
X99434380Y-87826428D01*
X99434380Y-87635952D01*
X99482000Y-87540714D01*
X99529619Y-87493095D01*
X99624857Y-87445476D01*
X99862952Y-87445476D01*
X99958190Y-87493095D01*
X100005809Y-87540714D01*
X100053428Y-87635952D01*
X100053428Y-87826428D01*
X100005809Y-87921666D01*
X99958190Y-87969285D01*
X99862952Y-88016904D01*
G04 #@! TO.C,R70*
X100434380Y-76968142D02*
X99958190Y-76634809D01*
X100434380Y-76396714D02*
X99434380Y-76396714D01*
X99434380Y-76777666D01*
X99482000Y-76872904D01*
X99529619Y-76920523D01*
X99624857Y-76968142D01*
X99767714Y-76968142D01*
X99862952Y-76920523D01*
X99910571Y-76872904D01*
X99958190Y-76777666D01*
X99958190Y-76396714D01*
X99434380Y-77301476D02*
X99434380Y-77968142D01*
X100434380Y-77539571D01*
X99434380Y-78539571D02*
X99434380Y-78634809D01*
X99482000Y-78730047D01*
X99529619Y-78777666D01*
X99624857Y-78825285D01*
X99815333Y-78872904D01*
X100053428Y-78872904D01*
X100243904Y-78825285D01*
X100339142Y-78777666D01*
X100386761Y-78730047D01*
X100434380Y-78634809D01*
X100434380Y-78539571D01*
X100386761Y-78444333D01*
X100339142Y-78396714D01*
X100243904Y-78349095D01*
X100053428Y-78301476D01*
X99815333Y-78301476D01*
X99624857Y-78349095D01*
X99529619Y-78396714D01*
X99482000Y-78444333D01*
X99434380Y-78539571D01*
G04 #@! TO.C,R71*
X100434380Y-95002142D02*
X99958190Y-94668809D01*
X100434380Y-94430714D02*
X99434380Y-94430714D01*
X99434380Y-94811666D01*
X99482000Y-94906904D01*
X99529619Y-94954523D01*
X99624857Y-95002142D01*
X99767714Y-95002142D01*
X99862952Y-94954523D01*
X99910571Y-94906904D01*
X99958190Y-94811666D01*
X99958190Y-94430714D01*
X99434380Y-95335476D02*
X99434380Y-96002142D01*
X100434380Y-95573571D01*
X100434380Y-96906904D02*
X100434380Y-96335476D01*
X100434380Y-96621190D02*
X99434380Y-96621190D01*
X99577238Y-96525952D01*
X99672476Y-96430714D01*
X99720095Y-96335476D01*
G04 #@! TO.C,R72*
X134517857Y-130022380D02*
X134851190Y-129546190D01*
X135089285Y-130022380D02*
X135089285Y-129022380D01*
X134708333Y-129022380D01*
X134613095Y-129070000D01*
X134565476Y-129117619D01*
X134517857Y-129212857D01*
X134517857Y-129355714D01*
X134565476Y-129450952D01*
X134613095Y-129498571D01*
X134708333Y-129546190D01*
X135089285Y-129546190D01*
X134184523Y-129022380D02*
X133517857Y-129022380D01*
X133946428Y-130022380D01*
X133184523Y-129117619D02*
X133136904Y-129070000D01*
X133041666Y-129022380D01*
X132803571Y-129022380D01*
X132708333Y-129070000D01*
X132660714Y-129117619D01*
X132613095Y-129212857D01*
X132613095Y-129308095D01*
X132660714Y-129450952D01*
X133232142Y-130022380D01*
X132613095Y-130022380D01*
G04 #@! TO.C,R73*
X100434380Y-119386142D02*
X99958190Y-119052809D01*
X100434380Y-118814714D02*
X99434380Y-118814714D01*
X99434380Y-119195666D01*
X99482000Y-119290904D01*
X99529619Y-119338523D01*
X99624857Y-119386142D01*
X99767714Y-119386142D01*
X99862952Y-119338523D01*
X99910571Y-119290904D01*
X99958190Y-119195666D01*
X99958190Y-118814714D01*
X99434380Y-119719476D02*
X99434380Y-120386142D01*
X100434380Y-119957571D01*
X99434380Y-120671857D02*
X99434380Y-121290904D01*
X99815333Y-120957571D01*
X99815333Y-121100428D01*
X99862952Y-121195666D01*
X99910571Y-121243285D01*
X100005809Y-121290904D01*
X100243904Y-121290904D01*
X100339142Y-121243285D01*
X100386761Y-121195666D01*
X100434380Y-121100428D01*
X100434380Y-120814714D01*
X100386761Y-120719476D01*
X100339142Y-120671857D01*
G04 #@! TO.C,R74*
X100434380Y-110976142D02*
X99958190Y-110642809D01*
X100434380Y-110404714D02*
X99434380Y-110404714D01*
X99434380Y-110785666D01*
X99482000Y-110880904D01*
X99529619Y-110928523D01*
X99624857Y-110976142D01*
X99767714Y-110976142D01*
X99862952Y-110928523D01*
X99910571Y-110880904D01*
X99958190Y-110785666D01*
X99958190Y-110404714D01*
X99434380Y-111309476D02*
X99434380Y-111976142D01*
X100434380Y-111547571D01*
X99767714Y-112785666D02*
X100434380Y-112785666D01*
X99386761Y-112547571D02*
X100101047Y-112309476D01*
X100101047Y-112928523D01*
G04 #@! TO.C,R75*
X97640380Y-125736142D02*
X97164190Y-125402809D01*
X97640380Y-125164714D02*
X96640380Y-125164714D01*
X96640380Y-125545666D01*
X96688000Y-125640904D01*
X96735619Y-125688523D01*
X96830857Y-125736142D01*
X96973714Y-125736142D01*
X97068952Y-125688523D01*
X97116571Y-125640904D01*
X97164190Y-125545666D01*
X97164190Y-125164714D01*
X96640380Y-126069476D02*
X96640380Y-126736142D01*
X97640380Y-126307571D01*
X96640380Y-127593285D02*
X96640380Y-127117095D01*
X97116571Y-127069476D01*
X97068952Y-127117095D01*
X97021333Y-127212333D01*
X97021333Y-127450428D01*
X97068952Y-127545666D01*
X97116571Y-127593285D01*
X97211809Y-127640904D01*
X97449904Y-127640904D01*
X97545142Y-127593285D01*
X97592761Y-127545666D01*
X97640380Y-127450428D01*
X97640380Y-127212333D01*
X97592761Y-127117095D01*
X97545142Y-127069476D01*
G04 #@! TO.C,R76*
X100434380Y-102368142D02*
X99958190Y-102034809D01*
X100434380Y-101796714D02*
X99434380Y-101796714D01*
X99434380Y-102177666D01*
X99482000Y-102272904D01*
X99529619Y-102320523D01*
X99624857Y-102368142D01*
X99767714Y-102368142D01*
X99862952Y-102320523D01*
X99910571Y-102272904D01*
X99958190Y-102177666D01*
X99958190Y-101796714D01*
X99434380Y-102701476D02*
X99434380Y-103368142D01*
X100434380Y-102939571D01*
X99434380Y-104177666D02*
X99434380Y-103987190D01*
X99482000Y-103891952D01*
X99529619Y-103844333D01*
X99672476Y-103749095D01*
X99862952Y-103701476D01*
X100243904Y-103701476D01*
X100339142Y-103749095D01*
X100386761Y-103796714D01*
X100434380Y-103891952D01*
X100434380Y-104082428D01*
X100386761Y-104177666D01*
X100339142Y-104225285D01*
X100243904Y-104272904D01*
X100005809Y-104272904D01*
X99910571Y-104225285D01*
X99862952Y-104177666D01*
X99815333Y-104082428D01*
X99815333Y-103891952D01*
X99862952Y-103796714D01*
X99910571Y-103749095D01*
X100005809Y-103701476D01*
G04 #@! TO.C,R77*
X112261857Y-126276380D02*
X112595190Y-125800190D01*
X112833285Y-126276380D02*
X112833285Y-125276380D01*
X112452333Y-125276380D01*
X112357095Y-125324000D01*
X112309476Y-125371619D01*
X112261857Y-125466857D01*
X112261857Y-125609714D01*
X112309476Y-125704952D01*
X112357095Y-125752571D01*
X112452333Y-125800190D01*
X112833285Y-125800190D01*
X111928523Y-125276380D02*
X111261857Y-125276380D01*
X111690428Y-126276380D01*
X110976142Y-125276380D02*
X110309476Y-125276380D01*
X110738047Y-126276380D01*
G04 #@! TO.C,R78*
X106814857Y-126276380D02*
X107148190Y-125800190D01*
X107386285Y-126276380D02*
X107386285Y-125276380D01*
X107005333Y-125276380D01*
X106910095Y-125324000D01*
X106862476Y-125371619D01*
X106814857Y-125466857D01*
X106814857Y-125609714D01*
X106862476Y-125704952D01*
X106910095Y-125752571D01*
X107005333Y-125800190D01*
X107386285Y-125800190D01*
X106481523Y-125276380D02*
X105814857Y-125276380D01*
X106243428Y-126276380D01*
X105291047Y-125704952D02*
X105386285Y-125657333D01*
X105433904Y-125609714D01*
X105481523Y-125514476D01*
X105481523Y-125466857D01*
X105433904Y-125371619D01*
X105386285Y-125324000D01*
X105291047Y-125276380D01*
X105100571Y-125276380D01*
X105005333Y-125324000D01*
X104957714Y-125371619D01*
X104910095Y-125466857D01*
X104910095Y-125514476D01*
X104957714Y-125609714D01*
X105005333Y-125657333D01*
X105100571Y-125704952D01*
X105291047Y-125704952D01*
X105386285Y-125752571D01*
X105433904Y-125800190D01*
X105481523Y-125895428D01*
X105481523Y-126085904D01*
X105433904Y-126181142D01*
X105386285Y-126228761D01*
X105291047Y-126276380D01*
X105100571Y-126276380D01*
X105005333Y-126228761D01*
X104957714Y-126181142D01*
X104910095Y-126085904D01*
X104910095Y-125895428D01*
X104957714Y-125800190D01*
X105005333Y-125752571D01*
X105100571Y-125704952D01*
G04 #@! TO.C,R79*
X122642857Y-128022380D02*
X122976190Y-127546190D01*
X123214285Y-128022380D02*
X123214285Y-127022380D01*
X122833333Y-127022380D01*
X122738095Y-127070000D01*
X122690476Y-127117619D01*
X122642857Y-127212857D01*
X122642857Y-127355714D01*
X122690476Y-127450952D01*
X122738095Y-127498571D01*
X122833333Y-127546190D01*
X123214285Y-127546190D01*
X122309523Y-127022380D02*
X121642857Y-127022380D01*
X122071428Y-128022380D01*
X121214285Y-128022380D02*
X121023809Y-128022380D01*
X120928571Y-127974761D01*
X120880952Y-127927142D01*
X120785714Y-127784285D01*
X120738095Y-127593809D01*
X120738095Y-127212857D01*
X120785714Y-127117619D01*
X120833333Y-127070000D01*
X120928571Y-127022380D01*
X121119047Y-127022380D01*
X121214285Y-127070000D01*
X121261904Y-127117619D01*
X121309523Y-127212857D01*
X121309523Y-127450952D01*
X121261904Y-127546190D01*
X121214285Y-127593809D01*
X121119047Y-127641428D01*
X120928571Y-127641428D01*
X120833333Y-127593809D01*
X120785714Y-127546190D01*
X120738095Y-127450952D01*
G04 #@! TO.C,R80*
X100859857Y-129136380D02*
X101193190Y-128660190D01*
X101431285Y-129136380D02*
X101431285Y-128136380D01*
X101050333Y-128136380D01*
X100955095Y-128184000D01*
X100907476Y-128231619D01*
X100859857Y-128326857D01*
X100859857Y-128469714D01*
X100907476Y-128564952D01*
X100955095Y-128612571D01*
X101050333Y-128660190D01*
X101431285Y-128660190D01*
X100288428Y-128564952D02*
X100383666Y-128517333D01*
X100431285Y-128469714D01*
X100478904Y-128374476D01*
X100478904Y-128326857D01*
X100431285Y-128231619D01*
X100383666Y-128184000D01*
X100288428Y-128136380D01*
X100097952Y-128136380D01*
X100002714Y-128184000D01*
X99955095Y-128231619D01*
X99907476Y-128326857D01*
X99907476Y-128374476D01*
X99955095Y-128469714D01*
X100002714Y-128517333D01*
X100097952Y-128564952D01*
X100288428Y-128564952D01*
X100383666Y-128612571D01*
X100431285Y-128660190D01*
X100478904Y-128755428D01*
X100478904Y-128945904D01*
X100431285Y-129041142D01*
X100383666Y-129088761D01*
X100288428Y-129136380D01*
X100097952Y-129136380D01*
X100002714Y-129088761D01*
X99955095Y-129041142D01*
X99907476Y-128945904D01*
X99907476Y-128755428D01*
X99955095Y-128660190D01*
X100002714Y-128612571D01*
X100097952Y-128564952D01*
X99288428Y-128136380D02*
X99193190Y-128136380D01*
X99097952Y-128184000D01*
X99050333Y-128231619D01*
X99002714Y-128326857D01*
X98955095Y-128517333D01*
X98955095Y-128755428D01*
X99002714Y-128945904D01*
X99050333Y-129041142D01*
X99097952Y-129088761D01*
X99193190Y-129136380D01*
X99288428Y-129136380D01*
X99383666Y-129088761D01*
X99431285Y-129041142D01*
X99478904Y-128945904D01*
X99526523Y-128755428D01*
X99526523Y-128517333D01*
X99478904Y-128326857D01*
X99431285Y-128231619D01*
X99383666Y-128184000D01*
X99288428Y-128136380D01*
G04 #@! TD*
M02*
