EESchema Schematic File Version 4
LIBS:MegaLeoPcb-cache
EELAYER 26 0
EELAYER END
$Descr A4 11693 8268
encoding utf-8
Sheet 5 9
Title ""
Date ""
Rev ""
Comp ""
Comment1 ""
Comment2 ""
Comment3 ""
Comment4 ""
$EndDescr
$Comp
L power:GND #PWR?
U 1 1 5E8BDE5C
P 5650 3700
AR Path="/5E8BDE5C" Ref="#PWR?"  Part="1" 
AR Path="/5E8BCA5A/5E8BDE5C" Ref="#PWR0140"  Part="1" 
AR Path="/5E8CE35F/5E8BDE5C" Ref="#PWR0142"  Part="1" 
AR Path="/5E8CF5EE/5E8BDE5C" Ref="#PWR0144"  Part="1" 
AR Path="/5E8CF5F6/5E8BDE5C" Ref="#PWR0146"  Part="1" 
F 0 "#PWR0146" H 5650 3450 50  0001 C CNN
F 1 "GND" H 5655 3527 50  0000 C CNN
F 2 "" H 5650 3700 50  0001 C CNN
F 3 "" H 5650 3700 50  0001 C CNN
	1    5650 3700
	1    0    0    -1  
$EndComp
$Comp
L power:+12V #PWR0141
U 1 1 5E8BF71B
P 7900 2650
AR Path="/5E8BCA5A/5E8BF71B" Ref="#PWR0141"  Part="1" 
AR Path="/5E8CE35F/5E8BF71B" Ref="#PWR0143"  Part="1" 
AR Path="/5E8CF5EE/5E8BF71B" Ref="#PWR0145"  Part="1" 
AR Path="/5E8CF5F6/5E8BF71B" Ref="#PWR0147"  Part="1" 
F 0 "#PWR0147" H 7900 2500 50  0001 C CNN
F 1 "+12V" H 7915 2823 50  0000 C CNN
F 2 "" H 7900 2650 50  0001 C CNN
F 3 "" H 7900 2650 50  0001 C CNN
	1    7900 2650
	1    0    0    -1  
$EndComp
Wire Wire Line
	7900 2650 7900 2700
$Comp
L Device:R R28
U 1 1 5E8BF928
P 7000 3200
AR Path="/5E8BCA5A/5E8BF928" Ref="R28"  Part="1" 
AR Path="/5E8CE35F/5E8BF928" Ref="R40"  Part="1" 
AR Path="/5E8CF5EE/5E8BF928" Ref="R52"  Part="1" 
AR Path="/5E8CF5F6/5E8BF928" Ref="R64"  Part="1" 
F 0 "R28" V 7050 3350 50  0000 C CNN
F 1 "330" V 7000 3200 50  0000 C CNN
F 2 "Resistor_SMD:R_0603_1608Metric_Pad1.05x0.95mm_HandSolder" V 6930 3200 50  0001 C CNN
F 3 "~" H 7000 3200 50  0001 C CNN
	1    7000 3200
	0    1    1    0   
$EndComp
$Comp
L Device:R R22
U 1 1 5E8BF99F
P 5900 3200
AR Path="/5E8BCA5A/5E8BF99F" Ref="R22"  Part="1" 
AR Path="/5E8CE35F/5E8BF99F" Ref="R34"  Part="1" 
AR Path="/5E8CF5EE/5E8BF99F" Ref="R46"  Part="1" 
AR Path="/5E8CF5F6/5E8BF99F" Ref="R58"  Part="1" 
F 0 "R22" V 5950 3350 50  0000 C CNN
F 1 "200" V 5900 3200 50  0000 C CNN
F 2 "Resistor_SMD:R_0603_1608Metric_Pad1.05x0.95mm_HandSolder" V 5830 3200 50  0001 C CNN
F 3 "~" H 5900 3200 50  0001 C CNN
	1    5900 3200
	0    1    1    0   
$EndComp
$Comp
L Device:R R27
U 1 1 5E8BFBB4
P 7000 3100
AR Path="/5E8BCA5A/5E8BFBB4" Ref="R27"  Part="1" 
AR Path="/5E8CE35F/5E8BFBB4" Ref="R39"  Part="1" 
AR Path="/5E8CF5EE/5E8BFBB4" Ref="R51"  Part="1" 
AR Path="/5E8CF5F6/5E8BFBB4" Ref="R63"  Part="1" 
F 0 "R27" V 7050 3250 50  0000 C CNN
F 1 "330" V 7000 3100 50  0000 C CNN
F 2 "Resistor_SMD:R_0603_1608Metric_Pad1.05x0.95mm_HandSolder" V 6930 3100 50  0001 C CNN
F 3 "~" H 7000 3100 50  0001 C CNN
	1    7000 3100
	0    1    1    0   
$EndComp
$Comp
L Device:R R29
U 1 1 5E8BFBD8
P 7000 3300
AR Path="/5E8BCA5A/5E8BFBD8" Ref="R29"  Part="1" 
AR Path="/5E8CE35F/5E8BFBD8" Ref="R41"  Part="1" 
AR Path="/5E8CF5EE/5E8BFBD8" Ref="R53"  Part="1" 
AR Path="/5E8CF5F6/5E8BFBD8" Ref="R65"  Part="1" 
F 0 "R29" V 7050 3450 50  0000 C CNN
F 1 "330" V 7000 3300 50  0000 C CNN
F 2 "Resistor_SMD:R_0603_1608Metric_Pad1.05x0.95mm_HandSolder" V 6930 3300 50  0001 C CNN
F 3 "~" H 7000 3300 50  0001 C CNN
	1    7000 3300
	0    1    1    0   
$EndComp
$Comp
L Device:R R30
U 1 1 5E8BFBFE
P 7000 3400
AR Path="/5E8BCA5A/5E8BFBFE" Ref="R30"  Part="1" 
AR Path="/5E8CE35F/5E8BFBFE" Ref="R42"  Part="1" 
AR Path="/5E8CF5EE/5E8BFBFE" Ref="R54"  Part="1" 
AR Path="/5E8CF5F6/5E8BFBFE" Ref="R66"  Part="1" 
F 0 "R30" V 7050 3550 50  0000 C CNN
F 1 "330" V 7000 3400 50  0000 C CNN
F 2 "Resistor_SMD:R_0603_1608Metric_Pad1.05x0.95mm_HandSolder" V 6930 3400 50  0001 C CNN
F 3 "~" H 7000 3400 50  0001 C CNN
	1    7000 3400
	0    1    1    0   
$EndComp
$Comp
L Device:R R31
U 1 1 5E8BFC1A
P 7000 3500
AR Path="/5E8BCA5A/5E8BFC1A" Ref="R31"  Part="1" 
AR Path="/5E8CE35F/5E8BFC1A" Ref="R43"  Part="1" 
AR Path="/5E8CF5EE/5E8BFC1A" Ref="R55"  Part="1" 
AR Path="/5E8CF5F6/5E8BFC1A" Ref="R67"  Part="1" 
F 0 "R31" V 7050 3650 50  0000 C CNN
F 1 "330" V 7000 3500 50  0000 C CNN
F 2 "Resistor_SMD:R_0603_1608Metric_Pad1.05x0.95mm_HandSolder" V 6930 3500 50  0001 C CNN
F 3 "~" H 7000 3500 50  0001 C CNN
	1    7000 3500
	0    1    1    0   
$EndComp
$Comp
L Device:R R32
U 1 1 5E8BFC38
P 7000 3600
AR Path="/5E8BCA5A/5E8BFC38" Ref="R32"  Part="1" 
AR Path="/5E8CE35F/5E8BFC38" Ref="R44"  Part="1" 
AR Path="/5E8CF5EE/5E8BFC38" Ref="R56"  Part="1" 
AR Path="/5E8CF5F6/5E8BFC38" Ref="R68"  Part="1" 
F 0 "R32" V 7050 3750 50  0000 C CNN
F 1 "330" V 7000 3600 50  0000 C CNN
F 2 "Resistor_SMD:R_0603_1608Metric_Pad1.05x0.95mm_HandSolder" V 6930 3600 50  0001 C CNN
F 3 "~" H 7000 3600 50  0001 C CNN
	1    7000 3600
	0    1    1    0   
$EndComp
Text HLabel 6750 3850 3    50   Output ~ 0
Out1
Text HLabel 6650 3850 3    50   Output ~ 0
Out2
Text HLabel 6550 3850 3    50   Output ~ 0
Out3
Text HLabel 6450 3850 3    50   Output ~ 0
Out4
Text HLabel 6350 3850 3    50   Output ~ 0
Out5
Text HLabel 6250 3850 3    50   Output ~ 0
Out6
$Comp
L Device:R R21
U 1 1 5E8C031C
P 5900 3100
AR Path="/5E8BCA5A/5E8C031C" Ref="R21"  Part="1" 
AR Path="/5E8CE35F/5E8C031C" Ref="R33"  Part="1" 
AR Path="/5E8CF5EE/5E8C031C" Ref="R45"  Part="1" 
AR Path="/5E8CF5F6/5E8C031C" Ref="R57"  Part="1" 
F 0 "R21" V 5950 3250 50  0000 C CNN
F 1 "200" V 5900 3100 50  0000 C CNN
F 2 "Resistor_SMD:R_0603_1608Metric_Pad1.05x0.95mm_HandSolder" V 5830 3100 50  0001 C CNN
F 3 "~" H 5900 3100 50  0001 C CNN
	1    5900 3100
	0    1    1    0   
$EndComp
$Comp
L Device:R R23
U 1 1 5E8C0346
P 5900 3300
AR Path="/5E8BCA5A/5E8C0346" Ref="R23"  Part="1" 
AR Path="/5E8CE35F/5E8C0346" Ref="R35"  Part="1" 
AR Path="/5E8CF5EE/5E8C0346" Ref="R47"  Part="1" 
AR Path="/5E8CF5F6/5E8C0346" Ref="R59"  Part="1" 
F 0 "R23" V 5950 3450 50  0000 C CNN
F 1 "200" V 5900 3300 50  0000 C CNN
F 2 "Resistor_SMD:R_0603_1608Metric_Pad1.05x0.95mm_HandSolder" V 5830 3300 50  0001 C CNN
F 3 "~" H 5900 3300 50  0001 C CNN
	1    5900 3300
	0    1    1    0   
$EndComp
$Comp
L Device:R R24
U 1 1 5E8C036E
P 5900 3400
AR Path="/5E8BCA5A/5E8C036E" Ref="R24"  Part="1" 
AR Path="/5E8CE35F/5E8C036E" Ref="R36"  Part="1" 
AR Path="/5E8CF5EE/5E8C036E" Ref="R48"  Part="1" 
AR Path="/5E8CF5F6/5E8C036E" Ref="R60"  Part="1" 
F 0 "R24" V 5950 3550 50  0000 C CNN
F 1 "200" V 5900 3400 50  0000 C CNN
F 2 "Resistor_SMD:R_0603_1608Metric_Pad1.05x0.95mm_HandSolder" V 5830 3400 50  0001 C CNN
F 3 "~" H 5900 3400 50  0001 C CNN
	1    5900 3400
	0    1    1    0   
$EndComp
$Comp
L Device:R R25
U 1 1 5E8C0394
P 5900 3500
AR Path="/5E8BCA5A/5E8C0394" Ref="R25"  Part="1" 
AR Path="/5E8CE35F/5E8C0394" Ref="R37"  Part="1" 
AR Path="/5E8CF5EE/5E8C0394" Ref="R49"  Part="1" 
AR Path="/5E8CF5F6/5E8C0394" Ref="R61"  Part="1" 
F 0 "R25" V 5950 3650 50  0000 C CNN
F 1 "200" V 5900 3500 50  0000 C CNN
F 2 "Resistor_SMD:R_0603_1608Metric_Pad1.05x0.95mm_HandSolder" V 5830 3500 50  0001 C CNN
F 3 "~" H 5900 3500 50  0001 C CNN
	1    5900 3500
	0    1    1    0   
$EndComp
$Comp
L Device:R R26
U 1 1 5E8C03C0
P 5900 3600
AR Path="/5E8BCA5A/5E8C03C0" Ref="R26"  Part="1" 
AR Path="/5E8CE35F/5E8C03C0" Ref="R38"  Part="1" 
AR Path="/5E8CF5EE/5E8C03C0" Ref="R50"  Part="1" 
AR Path="/5E8CF5F6/5E8C03C0" Ref="R62"  Part="1" 
F 0 "R26" V 5950 3750 50  0000 C CNN
F 1 "200" V 5900 3600 50  0000 C CNN
F 2 "Resistor_SMD:R_0603_1608Metric_Pad1.05x0.95mm_HandSolder" V 5830 3600 50  0001 C CNN
F 3 "~" H 5900 3600 50  0001 C CNN
	1    5900 3600
	0    1    1    0   
$EndComp
Wire Wire Line
	6050 3100 6750 3100
Wire Wire Line
	6050 3200 6650 3200
Wire Wire Line
	6850 3300 6550 3300
Wire Wire Line
	6050 3400 6450 3400
Wire Wire Line
	6850 3500 6350 3500
Wire Wire Line
	6050 3600 6250 3600
Wire Wire Line
	6750 3850 6750 3100
Connection ~ 6750 3100
Wire Wire Line
	6750 3100 6850 3100
Wire Wire Line
	6650 3850 6650 3200
Connection ~ 6650 3200
Wire Wire Line
	6650 3200 6850 3200
Wire Wire Line
	6550 3300 6550 3850
Connection ~ 6550 3300
Wire Wire Line
	6550 3300 6050 3300
Wire Wire Line
	6450 3850 6450 3400
Connection ~ 6450 3400
Wire Wire Line
	6450 3400 6850 3400
Wire Wire Line
	6350 3850 6350 3500
Connection ~ 6350 3500
Wire Wire Line
	6350 3500 6050 3500
Wire Wire Line
	6250 3850 6250 3600
Connection ~ 6250 3600
Wire Wire Line
	6250 3600 6850 3600
Wire Wire Line
	5750 3100 5650 3100
Wire Wire Line
	5650 3100 5650 3200
Wire Wire Line
	5650 3600 5750 3600
Wire Wire Line
	5750 3500 5650 3500
Connection ~ 5650 3500
Wire Wire Line
	5650 3500 5650 3600
Wire Wire Line
	5750 3400 5650 3400
Connection ~ 5650 3400
Wire Wire Line
	5650 3400 5650 3500
Wire Wire Line
	5750 3300 5650 3300
Connection ~ 5650 3300
Wire Wire Line
	5650 3300 5650 3400
Wire Wire Line
	5750 3200 5650 3200
Connection ~ 5650 3200
Wire Wire Line
	5650 3200 5650 3300
Wire Wire Line
	5650 3700 5650 3600
Connection ~ 5650 3600
$Comp
L Connector_Generic:Conn_02x04_Counter_Clockwise J18
U 1 1 5E959CC5
P 7850 3100
AR Path="/5E8CF5F6/5E959CC5" Ref="J18"  Part="1" 
AR Path="/5E8BCA5A/5E959CC5" Ref="J14"  Part="1" 
AR Path="/5E8CE35F/5E959CC5" Ref="J15"  Part="1" 
AR Path="/5E8CF5EE/5E959CC5" Ref="J17"  Part="1" 
F 0 "J14" H 7900 3417 50  0000 C CNN
F 1 "Conn_02x04_Counter_Clockwise" H 7900 3326 50  0000 C CNN
F 2 "Connector_PinHeader_2.54mm:PinHeader_2x04_P2.54mm_Vertical_SMD" H 7850 3100 50  0001 C CNN
F 3 "~" H 7850 3100 50  0001 C CNN
	1    7850 3100
	1    0    0    -1  
$EndComp
Wire Wire Line
	7650 3000 7550 3000
Wire Wire Line
	7550 3000 7550 2700
Wire Wire Line
	7550 2700 7900 2700
Wire Wire Line
	8250 2700 8250 3000
Wire Wire Line
	8250 3000 8150 3000
Connection ~ 7900 2700
Wire Wire Line
	7900 2700 8250 2700
Wire Wire Line
	7150 3100 7650 3100
Wire Wire Line
	7150 3200 7650 3200
Wire Wire Line
	7150 3300 7650 3300
Wire Wire Line
	7150 3400 8150 3400
Wire Wire Line
	8150 3400 8150 3300
Wire Wire Line
	7150 3500 8250 3500
Wire Wire Line
	8250 3500 8250 3200
Wire Wire Line
	8250 3200 8150 3200
Wire Wire Line
	7150 3600 8350 3600
Wire Wire Line
	8350 3600 8350 3100
Wire Wire Line
	8350 3100 8150 3100
$EndSCHEMATC
