EESchema Schematic File Version 4
LIBS:MegaLeoPcb-cache
EELAYER 26 0
EELAYER END
$Descr A4 11693 8268
encoding utf-8
Sheet 1 9
Title ""
Date ""
Rev ""
Comp ""
Comment1 ""
Comment2 ""
Comment3 ""
Comment4 ""
$EndDescr
$Comp
L Connector:Screw_Terminal_01x02 J11
U 1 1 5D8A88F2
P 10100 6050
F 0 "J11" H 10180 6042 50  0000 L CNN
F 1 "Screw_Terminal_01x02" H 10180 5951 50  0000 L CNN
F 2 "TerminalBlock_4Ucon:TerminalBlock_4Ucon_1x02_P3.50mm_Horizontal" H 10100 6050 50  0001 C CNN
F 3 "~" H 10100 6050 50  0001 C CNN
	1    10100 6050
	1    0    0    -1  
$EndComp
Wire Wire Line
	9650 6050 9900 6050
$Comp
L power:GND #PWR0118
U 1 1 5D8A8900
P 8950 6200
F 0 "#PWR0118" H 8950 5950 50  0001 C CNN
F 1 "GND" H 8955 6027 50  0000 C CNN
F 2 "" H 8950 6200 50  0001 C CNN
F 3 "" H 8950 6200 50  0001 C CNN
	1    8950 6200
	1    0    0    -1  
$EndComp
$Comp
L Device:R R7
U 1 1 5D8A890B
P 9700 6150
F 0 "R7" V 9750 6300 50  0000 C CNN
F 1 "330R" V 9700 6150 50  0000 C CNN
F 2 "Resistor_SMD:R_0603_1608Metric_Pad1.05x0.95mm_HandSolder" V 9630 6150 50  0001 C CNN
F 3 "~" H 9700 6150 50  0001 C CNN
	1    9700 6150
	0    1    1    0   
$EndComp
Text GLabel 9500 1900 2    50   Input ~ 0
M7
Text GLabel 8850 2000 0    50   Input ~ 0
M6
Text GLabel 8250 2600 0    50   Input ~ 0
A11
$Comp
L power:+12V #PWR0131
U 1 1 5DA1872E
P 3600 1300
F 0 "#PWR0131" H 3600 1150 50  0001 C CNN
F 1 "+12V" H 3615 1473 50  0000 C CNN
F 2 "" H 3600 1300 50  0001 C CNN
F 3 "" H 3600 1300 50  0001 C CNN
	1    3600 1300
	1    0    0    -1  
$EndComp
$Comp
L power:+5V #PWR0132
U 1 1 5DA187BE
P 3450 1050
F 0 "#PWR0132" H 3450 900 50  0001 C CNN
F 1 "+5V" H 3465 1223 50  0000 C CNN
F 2 "" H 3450 1050 50  0001 C CNN
F 3 "" H 3450 1050 50  0001 C CNN
	1    3450 1050
	1    0    0    -1  
$EndComp
$Comp
L power:+5V #PWR0133
U 1 1 5DA18810
P 3750 1050
F 0 "#PWR0133" H 3750 900 50  0001 C CNN
F 1 "+5V" H 3765 1223 50  0000 C CNN
F 2 "" H 3750 1050 50  0001 C CNN
F 3 "" H 3750 1050 50  0001 C CNN
	1    3750 1050
	1    0    0    -1  
$EndComp
$Comp
L power:GND #PWR0135
U 1 1 5DA1DA09
P 4100 1350
F 0 "#PWR0135" H 4100 1100 50  0001 C CNN
F 1 "GND" H 4105 1177 50  0000 C CNN
F 2 "" H 4100 1350 50  0001 C CNN
F 3 "" H 4100 1350 50  0001 C CNN
	1    4100 1350
	1    0    0    -1  
$EndComp
Wire Wire Line
	4100 1350 3850 1350
Wire Wire Line
	3850 1350 3850 1450
Wire Wire Line
	3150 1350 3350 1350
Wire Wire Line
	3350 1350 3350 1450
Wire Wire Line
	3450 1050 3450 1450
Wire Wire Line
	3750 1050 3750 1450
Wire Wire Line
	3550 1450 3550 1300
Wire Wire Line
	3550 1300 3600 1300
Wire Wire Line
	3600 1300 3650 1300
Wire Wire Line
	3650 1300 3650 1450
Connection ~ 3600 1300
$Comp
L Connector:Screw_Terminal_01x03 J9
U 1 1 5DA81B4C
P 3450 1650
F 0 "J9" V 3323 1830 50  0000 L CNN
F 1 "Screw_Terminal_01x03" V 3414 1830 50  0000 L CNN
F 2 "TerminalBlock_4Ucon:TerminalBlock_4Ucon_1x03_P3.50mm_Horizontal" H 3450 1650 50  0001 C CNN
F 3 "~" H 3450 1650 50  0001 C CNN
	1    3450 1650
	0    1    1    0   
$EndComp
$Comp
L Connector:Screw_Terminal_01x03 J16
U 1 1 5DA81BEB
P 3750 1650
F 0 "J16" V 3623 1830 50  0000 L CNN
F 1 "Screw_Terminal_01x03" V 3714 1830 50  0000 L CNN
F 2 "TerminalBlock_4Ucon:TerminalBlock_4Ucon_1x03_P3.50mm_Horizontal" H 3750 1650 50  0001 C CNN
F 3 "~" H 3750 1650 50  0001 C CNN
	1    3750 1650
	0    1    1    0   
$EndComp
$Comp
L arduino:Arduino_Mega2560_Shield XA1
U 1 1 5E882419
P 3750 5150
F 0 "XA1" H 3750 2770 60  0000 C CNN
F 1 "Arduino_Mega2560_Shield" H 3750 2664 60  0000 C CNN
F 2 "LTSG:Arduino_Mega2560_Shield" H 4450 7900 60  0001 C CNN
F 3 "https://store.arduino.cc/arduino-mega-2560-rev3" H 4450 7900 60  0001 C CNN
	1    3750 5150
	1    0    0    -1  
$EndComp
$Comp
L power:+5V #PWR0101
U 1 1 5E89322C
P 2150 7000
F 0 "#PWR0101" H 2150 6850 50  0001 C CNN
F 1 "+5V" H 2165 7173 50  0000 C CNN
F 2 "" H 2150 7000 50  0001 C CNN
F 3 "" H 2150 7000 50  0001 C CNN
	1    2150 7000
	1    0    0    -1  
$EndComp
Wire Wire Line
	2450 6400 2350 6400
Wire Wire Line
	2350 6400 2350 6500
Wire Wire Line
	2350 6800 2450 6800
Wire Wire Line
	2450 6700 2350 6700
Connection ~ 2350 6700
Wire Wire Line
	2350 6700 2350 6800
Wire Wire Line
	2450 6600 2350 6600
Connection ~ 2350 6600
Wire Wire Line
	2350 6600 2350 6700
Wire Wire Line
	2450 6500 2350 6500
Connection ~ 2350 6500
Wire Wire Line
	2350 6500 2350 6600
$Comp
L power:GND #PWR0102
U 1 1 5E8AA071
P 2150 6600
F 0 "#PWR0102" H 2150 6350 50  0001 C CNN
F 1 "GND" H 2155 6427 50  0000 C CNN
F 2 "" H 2150 6600 50  0001 C CNN
F 3 "" H 2150 6600 50  0001 C CNN
	1    2150 6600
	1    0    0    -1  
$EndComp
Wire Wire Line
	2150 6600 2350 6600
$Sheet
S 5400 6500 550  500 
U 5E8B164F
F0 "Output1" 50
F1 "Output.sch" 50
F2 "Input1" I L 5400 6600 50 
F3 "Input2" I L 5400 6700 50 
F4 "Input3" I L 5400 6800 50 
F5 "Input4" I L 5400 6900 50 
$EndSheet
$Sheet
S 800  6500 550  750 
U 5E8BCA5A
F0 "Input1" 50
F1 "Input.sch" 50
F2 "Out1" O R 1350 6650 50 
F3 "Out2" O R 1350 6750 50 
F4 "Out3" O R 1350 6850 50 
F5 "Out4" O R 1350 6950 50 
F6 "Out5" O R 1350 7050 50 
F7 "Out6" O R 1350 7150 50 
$EndSheet
Wire Wire Line
	9850 6150 9900 6150
$Comp
L Device:R R9
U 1 1 5E8C7CA6
P 9250 6150
F 0 "R9" V 9300 6300 50  0000 C CNN
F 1 "200R" V 9250 6150 50  0000 C CNN
F 2 "Resistor_SMD:R_0603_1608Metric_Pad1.05x0.95mm_HandSolder" V 9180 6150 50  0001 C CNN
F 3 "~" H 9250 6150 50  0001 C CNN
	1    9250 6150
	0    1    1    0   
$EndComp
Wire Wire Line
	8950 6200 8950 6150
Wire Wire Line
	8950 6150 9100 6150
Wire Wire Line
	9400 6150 9500 6150
Text GLabel 9350 6350 0    50   Input ~ 0
A3
Wire Wire Line
	9350 6350 9500 6350
Wire Wire Line
	9500 6350 9500 6150
Connection ~ 9500 6150
Wire Wire Line
	9500 6150 9550 6150
$Comp
L power:GND #PWR0103
U 1 1 5E8CD86B
P 3150 1350
F 0 "#PWR0103" H 3150 1100 50  0001 C CNN
F 1 "GND" H 3155 1177 50  0000 C CNN
F 2 "" H 3150 1350 50  0001 C CNN
F 3 "" H 3150 1350 50  0001 C CNN
	1    3150 1350
	1    0    0    -1  
$EndComp
$Sheet
S 5400 5050 550  750 
U 5E8CE35F
F0 "Input2" 50
F1 "Input.sch" 50
F2 "Out1" O L 5400 5200 50 
F3 "Out2" O L 5400 5300 50 
F4 "Out3" O L 5400 5400 50 
F5 "Out4" O L 5400 5500 50 
F6 "Out5" O L 5400 5600 50 
F7 "Out6" O L 5400 5700 50 
$EndSheet
$Sheet
S 5400 4150 550  750 
U 5E8CF5EE
F0 "Input3" 50
F1 "Input.sch" 50
F2 "Out1" O L 5400 4300 50 
F3 "Out2" O L 5400 4400 50 
F4 "Out3" O L 5400 4500 50 
F5 "Out4" O L 5400 4600 50 
F6 "Out5" O L 5400 4700 50 
F7 "Out6" O L 5400 4800 50 
$EndSheet
$Sheet
S 800  3500 550  750 
U 5E8CF5F6
F0 "Input4" 50
F1 "Input.sch" 50
F2 "Out1" O R 1350 3650 50 
F3 "Out2" O R 1350 3750 50 
F4 "Out3" O R 1350 3850 50 
F5 "Out4" O R 1350 3950 50 
F6 "Out5" O R 1350 4050 50 
F7 "Out6" O R 1350 4150 50 
$EndSheet
$Sheet
S 6100 3800 550  500 
U 5E8CFFED
F0 "Output2" 50
F1 "Output.sch" 50
F2 "Input1" I L 6100 3900 50 
F3 "Input2" I L 6100 4000 50 
F4 "Input3" I L 6100 4100 50 
F5 "Input4" I L 6100 4200 50 
$EndSheet
$Sheet
S 6100 3300 550  500 
U 5E8D08C1
F0 "Output3" 50
F1 "Output.sch" 50
F2 "Input1" I L 6100 3400 50 
F3 "Input2" I L 6100 3500 50 
F4 "Input3" I L 6100 3600 50 
F5 "Input4" I L 6100 3700 50 
$EndSheet
$Sheet
S 5400 2900 550  500 
U 5E8D08C7
F0 "Output4" 50
F1 "Output.sch" 50
F2 "Input1" I L 5400 3000 50 
F3 "Input2" I L 5400 3100 50 
F4 "Input3" I L 5400 3200 50 
F5 "Input4" I L 5400 3300 50 
$EndSheet
$Comp
L Connector:Screw_Terminal_01x02 J5
U 1 1 5E8D1CCD
P 10100 5450
F 0 "J5" H 10180 5442 50  0000 L CNN
F 1 "Screw_Terminal_01x02" H 10180 5351 50  0000 L CNN
F 2 "TerminalBlock_4Ucon:TerminalBlock_4Ucon_1x02_P3.50mm_Horizontal" H 10100 5450 50  0001 C CNN
F 3 "~" H 10100 5450 50  0001 C CNN
	1    10100 5450
	1    0    0    -1  
$EndComp
Wire Wire Line
	9650 5450 9900 5450
$Comp
L power:GND #PWR0104
U 1 1 5E8D1CDB
P 8950 5600
F 0 "#PWR0104" H 8950 5350 50  0001 C CNN
F 1 "GND" H 8955 5427 50  0000 C CNN
F 2 "" H 8950 5600 50  0001 C CNN
F 3 "" H 8950 5600 50  0001 C CNN
	1    8950 5600
	1    0    0    -1  
$EndComp
$Comp
L Device:R R16
U 1 1 5E8D1CE1
P 9700 5550
F 0 "R16" V 9750 5700 50  0000 C CNN
F 1 "330R" V 9700 5550 50  0000 C CNN
F 2 "Resistor_SMD:R_0603_1608Metric_Pad1.05x0.95mm_HandSolder" V 9630 5550 50  0001 C CNN
F 3 "~" H 9700 5550 50  0001 C CNN
	1    9700 5550
	0    1    1    0   
$EndComp
Wire Wire Line
	9850 5550 9900 5550
Wire Wire Line
	8950 5600 8950 5550
Wire Wire Line
	8950 5550 9100 5550
Wire Wire Line
	9400 5550 9500 5550
Text GLabel 9350 5750 0    50   Input ~ 0
A2
Wire Wire Line
	9350 5750 9500 5750
Wire Wire Line
	9500 5750 9500 5550
Connection ~ 9500 5550
Wire Wire Line
	9500 5550 9550 5550
$Comp
L Connector:Screw_Terminal_01x02 J4
U 1 1 5E8D2A6C
P 10100 4850
F 0 "J4" H 10180 4842 50  0000 L CNN
F 1 "Screw_Terminal_01x02" H 10180 4751 50  0000 L CNN
F 2 "TerminalBlock_4Ucon:TerminalBlock_4Ucon_1x02_P3.50mm_Horizontal" H 10100 4850 50  0001 C CNN
F 3 "~" H 10100 4850 50  0001 C CNN
	1    10100 4850
	1    0    0    -1  
$EndComp
Wire Wire Line
	9650 4850 9900 4850
$Comp
L power:GND #PWR0105
U 1 1 5E8D2A7A
P 8950 5000
F 0 "#PWR0105" H 8950 4750 50  0001 C CNN
F 1 "GND" H 8955 4827 50  0000 C CNN
F 2 "" H 8950 5000 50  0001 C CNN
F 3 "" H 8950 5000 50  0001 C CNN
	1    8950 5000
	1    0    0    -1  
$EndComp
$Comp
L Device:R R15
U 1 1 5E8D2A80
P 9700 4950
F 0 "R15" V 9750 5100 50  0000 C CNN
F 1 "330R" V 9700 4950 50  0000 C CNN
F 2 "Resistor_SMD:R_0603_1608Metric_Pad1.05x0.95mm_HandSolder" V 9630 4950 50  0001 C CNN
F 3 "~" H 9700 4950 50  0001 C CNN
	1    9700 4950
	0    1    1    0   
$EndComp
Wire Wire Line
	9850 4950 9900 4950
Wire Wire Line
	8950 5000 8950 4950
Wire Wire Line
	8950 4950 9100 4950
Wire Wire Line
	9400 4950 9500 4950
Text GLabel 9350 5150 0    50   Input ~ 0
A1
Wire Wire Line
	9350 5150 9500 5150
Wire Wire Line
	9500 5150 9500 4950
Connection ~ 9500 4950
Wire Wire Line
	9500 4950 9550 4950
$Comp
L Connector:Screw_Terminal_01x02 J3
U 1 1 5E8D3B51
P 10100 4250
F 0 "J3" H 10180 4242 50  0000 L CNN
F 1 "Screw_Terminal_01x02" H 10180 4151 50  0000 L CNN
F 2 "TerminalBlock_4Ucon:TerminalBlock_4Ucon_1x02_P3.50mm_Horizontal" H 10100 4250 50  0001 C CNN
F 3 "~" H 10100 4250 50  0001 C CNN
	1    10100 4250
	1    0    0    -1  
$EndComp
Wire Wire Line
	9650 4250 9900 4250
$Comp
L power:GND #PWR0106
U 1 1 5E8D3B5F
P 8950 4400
F 0 "#PWR0106" H 8950 4150 50  0001 C CNN
F 1 "GND" H 8955 4227 50  0000 C CNN
F 2 "" H 8950 4400 50  0001 C CNN
F 3 "" H 8950 4400 50  0001 C CNN
	1    8950 4400
	1    0    0    -1  
$EndComp
$Comp
L Device:R R14
U 1 1 5E8D3B65
P 9700 4350
F 0 "R14" V 9750 4500 50  0000 C CNN
F 1 "330R" V 9700 4350 50  0000 C CNN
F 2 "Resistor_SMD:R_0603_1608Metric_Pad1.05x0.95mm_HandSolder" V 9630 4350 50  0001 C CNN
F 3 "~" H 9700 4350 50  0001 C CNN
	1    9700 4350
	0    1    1    0   
$EndComp
Wire Wire Line
	9850 4350 9900 4350
Wire Wire Line
	8950 4400 8950 4350
Wire Wire Line
	8950 4350 9100 4350
Wire Wire Line
	9400 4350 9500 4350
Text GLabel 9350 4550 0    50   Input ~ 0
A0
Wire Wire Line
	9350 4550 9500 4550
Wire Wire Line
	9500 4550 9500 4350
Connection ~ 9500 4350
Wire Wire Line
	9500 4350 9550 4350
Text GLabel 8250 1200 0    50   Input ~ 0
A6
Text GLabel 10000 1300 2    50   Input ~ 0
A7
Text GLabel 9500 1200 2    50   Input ~ 0
M5
Text GLabel 8850 1300 0    50   Input ~ 0
M4
Text GLabel 10000 3400 2    50   Input ~ 0
A8
Text GLabel 8250 3300 0    50   Input ~ 0
A9
$Comp
L power:GND #PWR0107
U 1 1 5E8DAC81
P 9500 1400
F 0 "#PWR0107" H 9500 1150 50  0001 C CNN
F 1 "GND" H 9505 1227 50  0000 C CNN
F 2 "" H 9500 1400 50  0001 C CNN
F 3 "" H 9500 1400 50  0001 C CNN
	1    9500 1400
	1    0    0    -1  
$EndComp
$Comp
L power:+5V #PWR0108
U 1 1 5E8DAC91
P 9500 1100
F 0 "#PWR0108" H 9500 950 50  0001 C CNN
F 1 "+5V" H 9515 1273 50  0000 C CNN
F 2 "" H 9500 1100 50  0001 C CNN
F 3 "" H 9500 1100 50  0001 C CNN
	1    9500 1100
	1    0    0    -1  
$EndComp
Text GLabel 9500 3300 2    50   Input ~ 0
M0
Text GLabel 8850 3400 0    50   Input ~ 0
M1
Text GLabel 8250 1900 0    50   Input ~ 0
A4
Text GLabel 10000 2000 2    50   Input ~ 0
A5
Wire Wire Line
	5050 3500 6100 3500
Wire Wire Line
	5050 3600 6100 3600
Wire Wire Line
	5050 3400 5250 3400
Wire Wire Line
	5250 3400 5250 3450
Wire Wire Line
	5250 3450 5950 3450
Wire Wire Line
	5950 3450 5950 3400
Wire Wire Line
	5950 3400 6100 3400
Wire Wire Line
	5050 6800 5400 6800
Wire Wire Line
	5050 6900 5400 6900
Wire Wire Line
	5050 6600 5400 6600
Wire Wire Line
	5050 6700 5400 6700
Text GLabel 2250 4300 0    50   Input ~ 0
A0
Text GLabel 2250 4400 0    50   Input ~ 0
A1
Text GLabel 2250 4500 0    50   Input ~ 0
A2
Text GLabel 2250 4600 0    50   Input ~ 0
A3
Text GLabel 2250 4700 0    50   Input ~ 0
A4
Text GLabel 2250 4800 0    50   Input ~ 0
A5
Text GLabel 2250 4900 0    50   Input ~ 0
A6
Text GLabel 2250 5000 0    50   Input ~ 0
A7
Text GLabel 2250 5100 0    50   Input ~ 0
A8
Text GLabel 2250 5200 0    50   Input ~ 0
A9
Text GLabel 2250 5300 0    50   Input ~ 0
A10
Text GLabel 2250 5400 0    50   Input ~ 0
A11
Wire Wire Line
	2250 4300 2450 4300
Wire Wire Line
	2250 4400 2450 4400
Wire Wire Line
	2250 4500 2450 4500
Wire Wire Line
	2250 4600 2450 4600
Wire Wire Line
	2250 4700 2450 4700
Wire Wire Line
	2250 4800 2450 4800
Wire Wire Line
	2250 4900 2450 4900
Wire Wire Line
	2250 5000 2450 5000
Wire Wire Line
	2250 5100 2450 5100
Wire Wire Line
	2250 5200 2450 5200
Wire Wire Line
	2250 5300 2450 5300
Wire Wire Line
	2250 5400 2450 5400
Text GLabel 5200 3800 2    50   Input ~ 0
SSeth
Wire Wire Line
	5200 3800 5050 3800
Wire Wire Line
	5050 3900 6100 3900
Wire Wire Line
	5050 4000 6100 4000
Wire Wire Line
	5050 4100 6100 4100
Wire Wire Line
	5050 4200 6100 4200
Wire Wire Line
	5050 3700 6100 3700
Text GLabel 5150 7000 2    50   Input ~ 0
eth0
Text GLabel 5150 7100 2    50   Input ~ 0
eth1
Text GLabel 5150 7200 2    50   Input ~ 0
eth2
Text GLabel 5150 7300 2    50   Input ~ 0
eth3
Wire Wire Line
	5050 7000 5150 7000
Wire Wire Line
	5050 7100 5150 7100
Wire Wire Line
	5050 7200 5150 7200
Wire Wire Line
	5150 7300 5050 7300
Wire Wire Line
	5050 3300 5400 3300
Wire Wire Line
	5050 3200 5400 3200
Wire Wire Line
	5050 3100 5400 3100
Wire Wire Line
	5050 3000 5400 3000
Wire Wire Line
	5050 4300 5400 4300
Wire Wire Line
	5050 4400 5400 4400
Wire Wire Line
	5050 4500 5400 4500
Wire Wire Line
	5050 4600 5400 4600
Wire Wire Line
	5050 4700 5400 4700
Wire Wire Line
	5050 4800 5400 4800
Wire Wire Line
	5050 5200 5400 5200
Wire Wire Line
	5050 5300 5400 5300
Wire Wire Line
	5050 5400 5400 5400
Wire Wire Line
	5050 5500 5400 5500
Wire Wire Line
	5050 5600 5400 5600
Wire Wire Line
	5050 5700 5400 5700
Text GLabel 2250 5500 0    50   Input ~ 0
M0
Text GLabel 2250 5600 0    50   Input ~ 0
M1
Text GLabel 2250 5700 0    50   Input ~ 0
M2
Text GLabel 2250 5800 0    50   Input ~ 0
M3
Wire Wire Line
	2250 5500 2450 5500
Wire Wire Line
	2250 5600 2450 5600
Wire Wire Line
	2250 5700 2450 5700
Wire Wire Line
	2250 5800 2450 5800
Text GLabel 5200 4900 2    50   Input ~ 0
M4
Text GLabel 5200 5000 2    50   Input ~ 0
M5
Text GLabel 5200 5100 2    50   Input ~ 0
M6
Wire Wire Line
	5050 4900 5200 4900
Wire Wire Line
	5050 5000 5200 5000
Wire Wire Line
	5050 5100 5200 5100
Text GLabel 5200 5800 2    50   Input ~ 0
M7
Wire Wire Line
	5050 5800 5200 5800
Text GLabel 5200 5900 2    50   Input ~ 0
D0
Text GLabel 5200 6000 2    50   Input ~ 0
D1
Text GLabel 5200 6100 2    50   Input ~ 0
D2
Text GLabel 5200 6200 2    50   Input ~ 0
D3
Text GLabel 5200 6300 2    50   Input ~ 0
D4
Text GLabel 5200 6400 2    50   Input ~ 0
D5
Text GLabel 5200 6500 2    50   Input ~ 0
D6
Wire Wire Line
	5050 5900 5200 5900
Wire Wire Line
	5050 6000 5200 6000
Wire Wire Line
	5050 6100 5200 6100
Wire Wire Line
	5050 6200 5200 6200
Wire Wire Line
	5050 6300 5200 6300
Wire Wire Line
	5050 6400 5200 6400
Wire Wire Line
	5050 6500 5200 6500
Text GLabel 1500 6650 2    50   Input ~ 0
D0
Text GLabel 1500 6750 2    50   Input ~ 0
D1
Text GLabel 1500 6850 2    50   Input ~ 0
D2
Text GLabel 1500 6950 2    50   Input ~ 0
D3
Text GLabel 1500 7050 2    50   Input ~ 0
D4
Text GLabel 1500 7150 2    50   Input ~ 0
D5
Wire Wire Line
	1350 6650 1500 6650
Wire Wire Line
	1350 6750 1500 6750
Wire Wire Line
	1350 6850 1500 6850
Wire Wire Line
	1350 6950 1500 6950
Wire Wire Line
	1350 7050 1500 7050
Wire Wire Line
	1350 7150 1500 7150
Text GLabel 1450 3650 2    50   Input ~ 0
D6
Text GLabel 1450 3750 2    50   Input ~ 0
D7
Text GLabel 1450 3850 2    50   Input ~ 0
D8
Text GLabel 1450 3950 2    50   Input ~ 0
D9
Text GLabel 1450 4050 2    50   Input ~ 0
D10
Text GLabel 1450 4150 2    50   Input ~ 0
D11
Wire Wire Line
	1350 3650 1450 3650
Wire Wire Line
	1350 3750 1450 3750
Wire Wire Line
	1350 3850 1450 3850
Wire Wire Line
	1350 3950 1450 3950
Wire Wire Line
	1350 4050 1450 4050
Wire Wire Line
	1350 4150 1450 4150
Text GLabel 2350 3200 0    50   Input ~ 0
D7
Text GLabel 2350 3300 0    50   Input ~ 0
D8
Text GLabel 2350 3400 0    50   Input ~ 0
D9
Text GLabel 2350 3500 0    50   Input ~ 0
D10
Text GLabel 2350 3600 0    50   Input ~ 0
D11
Wire Wire Line
	2350 3200 2450 3200
Wire Wire Line
	2350 3300 2450 3300
Wire Wire Line
	2350 3400 2450 3400
Wire Wire Line
	2350 3500 2450 3500
Wire Wire Line
	2350 3600 2450 3600
$Comp
L Device:R R2
U 1 1 5E92CF12
P 9750 1150
F 0 "R2" H 9680 1104 50  0000 R CNN
F 1 "10K" H 9680 1195 50  0000 R CNN
F 2 "Resistor_SMD:R_0603_1608Metric_Pad1.05x0.95mm_HandSolder" V 9680 1150 50  0001 C CNN
F 3 "~" H 9750 1150 50  0001 C CNN
	1    9750 1150
	-1   0    0    1   
$EndComp
$Comp
L power:GND #PWR0109
U 1 1 5E9CB7F5
P 8600 1100
F 0 "#PWR0109" H 8600 850 50  0001 C CNN
F 1 "GND" H 8605 927 50  0000 C CNN
F 2 "" H 8600 1100 50  0001 C CNN
F 3 "" H 8600 1100 50  0001 C CNN
	1    8600 1100
	1    0    0    -1  
$EndComp
Wire Wire Line
	8900 1100 8600 1100
$Comp
L power:+5V #PWR0110
U 1 1 5E9CB7FC
P 8150 1500
F 0 "#PWR0110" H 8150 1350 50  0001 C CNN
F 1 "+5V" H 8165 1673 50  0000 C CNN
F 2 "" H 8150 1500 50  0001 C CNN
F 3 "" H 8150 1500 50  0001 C CNN
	1    8150 1500
	1    0    0    -1  
$EndComp
$Comp
L Device:R R1
U 1 1 5E9CB804
P 8350 1350
F 0 "R1" H 8280 1304 50  0000 R CNN
F 1 "10K" H 8280 1395 50  0000 R CNN
F 2 "Resistor_SMD:R_0603_1608Metric_Pad1.05x0.95mm_HandSolder" V 8280 1350 50  0001 C CNN
F 3 "~" H 8350 1350 50  0001 C CNN
	1    8350 1350
	-1   0    0    1   
$EndComp
Wire Wire Line
	8850 1300 8900 1300
Connection ~ 8350 1200
Wire Wire Line
	8350 1200 8900 1200
Wire Wire Line
	8250 1200 8350 1200
Wire Wire Line
	8350 1500 8550 1500
Wire Wire Line
	8150 1500 8350 1500
Connection ~ 8350 1500
Wire Wire Line
	8550 1500 8550 1400
Wire Wire Line
	8550 1400 8900 1400
$Comp
L power:GND #PWR0113
U 1 1 5EA05C4A
P 8600 2500
F 0 "#PWR0113" H 8600 2250 50  0001 C CNN
F 1 "GND" H 8605 2327 50  0000 C CNN
F 2 "" H 8600 2500 50  0001 C CNN
F 3 "" H 8600 2500 50  0001 C CNN
	1    8600 2500
	1    0    0    -1  
$EndComp
Wire Wire Line
	8900 2500 8600 2500
$Comp
L power:+5V #PWR0114
U 1 1 5EA05C51
P 8150 2900
F 0 "#PWR0114" H 8150 2750 50  0001 C CNN
F 1 "+5V" H 8165 3073 50  0000 C CNN
F 2 "" H 8150 2900 50  0001 C CNN
F 3 "" H 8150 2900 50  0001 C CNN
	1    8150 2900
	1    0    0    -1  
$EndComp
$Comp
L Device:R R3
U 1 1 5EA05C57
P 8350 2750
F 0 "R3" H 8280 2704 50  0000 R CNN
F 1 "10K" H 8280 2795 50  0000 R CNN
F 2 "Resistor_SMD:R_0603_1608Metric_Pad1.05x0.95mm_HandSolder" V 8280 2750 50  0001 C CNN
F 3 "~" H 8350 2750 50  0001 C CNN
	1    8350 2750
	-1   0    0    1   
$EndComp
Wire Wire Line
	8850 2700 8900 2700
Connection ~ 8350 2600
Wire Wire Line
	8350 2600 8900 2600
Wire Wire Line
	8250 2600 8350 2600
Wire Wire Line
	8350 2900 8550 2900
Wire Wire Line
	8150 2900 8350 2900
Connection ~ 8350 2900
Wire Wire Line
	8550 2900 8550 2800
Wire Wire Line
	8550 2800 8900 2800
Text GLabel 9500 2600 2    50   Input ~ 0
M2
Text GLabel 8850 2700 0    50   Input ~ 0
M3
$Comp
L power:GND #PWR0117
U 1 1 5EA8560B
P 8600 1800
F 0 "#PWR0117" H 8600 1550 50  0001 C CNN
F 1 "GND" H 8605 1627 50  0000 C CNN
F 2 "" H 8600 1800 50  0001 C CNN
F 3 "" H 8600 1800 50  0001 C CNN
	1    8600 1800
	1    0    0    -1  
$EndComp
Wire Wire Line
	8900 1800 8600 1800
$Comp
L power:+5V #PWR0119
U 1 1 5EA85612
P 8150 2200
F 0 "#PWR0119" H 8150 2050 50  0001 C CNN
F 1 "+5V" H 8165 2373 50  0000 C CNN
F 2 "" H 8150 2200 50  0001 C CNN
F 3 "" H 8150 2200 50  0001 C CNN
	1    8150 2200
	1    0    0    -1  
$EndComp
$Comp
L Device:R R10
U 1 1 5EA85618
P 8350 2050
F 0 "R10" H 8280 2004 50  0000 R CNN
F 1 "10K" H 8280 2095 50  0000 R CNN
F 2 "Resistor_SMD:R_0603_1608Metric_Pad1.05x0.95mm_HandSolder" V 8280 2050 50  0001 C CNN
F 3 "~" H 8350 2050 50  0001 C CNN
	1    8350 2050
	-1   0    0    1   
$EndComp
Wire Wire Line
	8850 2000 8900 2000
Connection ~ 8350 1900
Wire Wire Line
	8350 1900 8900 1900
Wire Wire Line
	8250 1900 8350 1900
Wire Wire Line
	8350 2200 8550 2200
Wire Wire Line
	8150 2200 8350 2200
Connection ~ 8350 2200
Wire Wire Line
	8550 2200 8550 2100
Wire Wire Line
	8550 2100 8900 2100
$Comp
L power:GND #PWR0122
U 1 1 5EA85645
P 8600 3200
F 0 "#PWR0122" H 8600 2950 50  0001 C CNN
F 1 "GND" H 8605 3027 50  0000 C CNN
F 2 "" H 8600 3200 50  0001 C CNN
F 3 "" H 8600 3200 50  0001 C CNN
	1    8600 3200
	1    0    0    -1  
$EndComp
Wire Wire Line
	8900 3200 8600 3200
$Comp
L power:+5V #PWR0123
U 1 1 5EA8564C
P 8150 3600
F 0 "#PWR0123" H 8150 3450 50  0001 C CNN
F 1 "+5V" H 8165 3773 50  0000 C CNN
F 2 "" H 8150 3600 50  0001 C CNN
F 3 "" H 8150 3600 50  0001 C CNN
	1    8150 3600
	1    0    0    -1  
$EndComp
$Comp
L Device:R R12
U 1 1 5EA85652
P 8350 3450
F 0 "R12" H 8280 3404 50  0000 R CNN
F 1 "10K" H 8280 3495 50  0000 R CNN
F 2 "Resistor_SMD:R_0603_1608Metric_Pad1.05x0.95mm_HandSolder" V 8280 3450 50  0001 C CNN
F 3 "~" H 8350 3450 50  0001 C CNN
	1    8350 3450
	-1   0    0    1   
$EndComp
Wire Wire Line
	8850 3400 8900 3400
Connection ~ 8350 3300
Wire Wire Line
	8350 3300 8900 3300
Wire Wire Line
	8250 3300 8350 3300
Wire Wire Line
	8350 3600 8550 3600
Wire Wire Line
	8150 3600 8350 3600
Connection ~ 8350 3600
Wire Wire Line
	8550 3600 8550 3500
Wire Wire Line
	8550 3500 8900 3500
$Comp
L Device:R R8
U 1 1 5EAA637A
P 9250 5550
F 0 "R8" V 9300 5700 50  0000 C CNN
F 1 "200R" V 9250 5550 50  0000 C CNN
F 2 "Resistor_SMD:R_0603_1608Metric_Pad1.05x0.95mm_HandSolder" V 9180 5550 50  0001 C CNN
F 3 "~" H 9250 5550 50  0001 C CNN
	1    9250 5550
	0    1    1    0   
$EndComp
$Comp
L Device:R R6
U 1 1 5EAA63D4
P 9250 4950
F 0 "R6" V 9300 5100 50  0000 C CNN
F 1 "200R" V 9250 4950 50  0000 C CNN
F 2 "Resistor_SMD:R_0603_1608Metric_Pad1.05x0.95mm_HandSolder" V 9180 4950 50  0001 C CNN
F 3 "~" H 9250 4950 50  0001 C CNN
	1    9250 4950
	0    1    1    0   
$EndComp
$Comp
L Device:R R5
U 1 1 5EAA642E
P 9250 4350
F 0 "R5" V 9300 4500 50  0000 C CNN
F 1 "200R" V 9250 4350 50  0000 C CNN
F 2 "Resistor_SMD:R_0603_1608Metric_Pad1.05x0.95mm_HandSolder" V 9180 4350 50  0001 C CNN
F 3 "~" H 9250 4350 50  0001 C CNN
	1    9250 4350
	0    1    1    0   
$EndComp
$Comp
L power:+12V #PWR0124
U 1 1 5EAA68C4
P 9650 4250
F 0 "#PWR0124" H 9650 4100 50  0001 C CNN
F 1 "+12V" H 9665 4423 50  0000 C CNN
F 2 "" H 9650 4250 50  0001 C CNN
F 3 "" H 9650 4250 50  0001 C CNN
	1    9650 4250
	1    0    0    -1  
$EndComp
$Comp
L power:+12V #PWR0125
U 1 1 5EAA6A64
P 9650 4850
F 0 "#PWR0125" H 9650 4700 50  0001 C CNN
F 1 "+12V" H 9665 5023 50  0000 C CNN
F 2 "" H 9650 4850 50  0001 C CNN
F 3 "" H 9650 4850 50  0001 C CNN
	1    9650 4850
	1    0    0    -1  
$EndComp
$Comp
L power:+12V #PWR0126
U 1 1 5EAA6AA5
P 9650 5450
F 0 "#PWR0126" H 9650 5300 50  0001 C CNN
F 1 "+12V" H 9665 5623 50  0000 C CNN
F 2 "" H 9650 5450 50  0001 C CNN
F 3 "" H 9650 5450 50  0001 C CNN
	1    9650 5450
	1    0    0    -1  
$EndComp
$Comp
L power:+12V #PWR0127
U 1 1 5EAA6C45
P 9650 6050
F 0 "#PWR0127" H 9650 5900 50  0001 C CNN
F 1 "+12V" H 9665 6223 50  0000 C CNN
F 2 "" H 9650 6050 50  0001 C CNN
F 3 "" H 9650 6050 50  0001 C CNN
	1    9650 6050
	1    0    0    -1  
$EndComp
$Comp
L Connector_Generic:Conn_02x04_Counter_Clockwise J1
U 1 1 5E95E4BE
P 9100 1200
F 0 "J1" H 9150 1517 50  0000 C CNN
F 1 "Conn_02x04_Counter_Clockwise" H 9150 1600 50  0000 C CNN
F 2 "Connector_PinHeader_2.54mm:PinHeader_2x04_P2.54mm_Vertical_SMD" H 9100 1200 50  0001 C CNN
F 3 "~" H 9100 1200 50  0001 C CNN
	1    9100 1200
	1    0    0    -1  
$EndComp
Wire Wire Line
	9500 1400 9400 1400
Wire Wire Line
	9400 1100 9500 1100
Wire Wire Line
	9500 1200 9400 1200
Wire Wire Line
	9400 1300 9750 1300
Wire Wire Line
	9750 1300 10000 1300
Connection ~ 9750 1300
Wire Wire Line
	9500 1100 9650 1100
Wire Wire Line
	9650 1100 9650 1000
Wire Wire Line
	9650 1000 9750 1000
Connection ~ 9500 1100
$Comp
L power:GND #PWR0111
U 1 1 5EA36888
P 9500 2100
F 0 "#PWR0111" H 9500 1850 50  0001 C CNN
F 1 "GND" H 9505 1927 50  0000 C CNN
F 2 "" H 9500 2100 50  0001 C CNN
F 3 "" H 9500 2100 50  0001 C CNN
	1    9500 2100
	1    0    0    -1  
$EndComp
$Comp
L power:+5V #PWR0112
U 1 1 5EA3688E
P 9500 1800
F 0 "#PWR0112" H 9500 1650 50  0001 C CNN
F 1 "+5V" H 9515 1973 50  0000 C CNN
F 2 "" H 9500 1800 50  0001 C CNN
F 3 "" H 9500 1800 50  0001 C CNN
	1    9500 1800
	1    0    0    -1  
$EndComp
$Comp
L Device:R R4
U 1 1 5EA36898
P 9750 1850
F 0 "R4" H 9680 1804 50  0000 R CNN
F 1 "10K" H 9680 1895 50  0000 R CNN
F 2 "Resistor_SMD:R_0603_1608Metric_Pad1.05x0.95mm_HandSolder" V 9680 1850 50  0001 C CNN
F 3 "~" H 9750 1850 50  0001 C CNN
	1    9750 1850
	-1   0    0    1   
$EndComp
$Comp
L Connector_Generic:Conn_02x04_Counter_Clockwise J2
U 1 1 5EA368BC
P 9100 1900
F 0 "J2" H 9150 2217 50  0000 C CNN
F 1 "Conn_02x04_Counter_Clockwise" H 9150 2300 50  0000 C CNN
F 2 "Connector_PinHeader_2.54mm:PinHeader_2x04_P2.54mm_Vertical_SMD" H 9100 1900 50  0001 C CNN
F 3 "~" H 9100 1900 50  0001 C CNN
	1    9100 1900
	1    0    0    -1  
$EndComp
Wire Wire Line
	9500 2100 9400 2100
Wire Wire Line
	9400 1800 9500 1800
Wire Wire Line
	9500 1900 9400 1900
Wire Wire Line
	9400 2000 9750 2000
Wire Wire Line
	9750 2000 10000 2000
Connection ~ 9750 2000
Wire Wire Line
	9500 1800 9650 1800
Wire Wire Line
	9650 1800 9650 1700
Wire Wire Line
	9650 1700 9750 1700
Connection ~ 9500 1800
$Comp
L power:GND #PWR0115
U 1 1 5EA48529
P 9500 2800
F 0 "#PWR0115" H 9500 2550 50  0001 C CNN
F 1 "GND" H 9505 2627 50  0000 C CNN
F 2 "" H 9500 2800 50  0001 C CNN
F 3 "" H 9500 2800 50  0001 C CNN
	1    9500 2800
	1    0    0    -1  
$EndComp
$Comp
L power:+5V #PWR0116
U 1 1 5EA4852F
P 9500 2500
F 0 "#PWR0116" H 9500 2350 50  0001 C CNN
F 1 "+5V" H 9515 2673 50  0000 C CNN
F 2 "" H 9500 2500 50  0001 C CNN
F 3 "" H 9500 2500 50  0001 C CNN
	1    9500 2500
	1    0    0    -1  
$EndComp
$Comp
L Device:R R11
U 1 1 5EA48539
P 9750 2550
F 0 "R11" H 9680 2504 50  0000 R CNN
F 1 "10K" H 9680 2595 50  0000 R CNN
F 2 "Resistor_SMD:R_0603_1608Metric_Pad1.05x0.95mm_HandSolder" V 9680 2550 50  0001 C CNN
F 3 "~" H 9750 2550 50  0001 C CNN
	1    9750 2550
	-1   0    0    1   
$EndComp
$Comp
L Connector_Generic:Conn_02x04_Counter_Clockwise J6
U 1 1 5EA4855D
P 9100 2600
F 0 "J6" H 9150 2917 50  0000 C CNN
F 1 "Conn_02x04_Counter_Clockwise" H 9150 3000 50  0000 C CNN
F 2 "Connector_PinHeader_2.54mm:PinHeader_2x04_P2.54mm_Vertical_SMD" H 9100 2600 50  0001 C CNN
F 3 "~" H 9100 2600 50  0001 C CNN
	1    9100 2600
	1    0    0    -1  
$EndComp
Wire Wire Line
	9500 2800 9400 2800
Wire Wire Line
	9400 2500 9500 2500
Wire Wire Line
	9500 2600 9400 2600
Wire Wire Line
	9400 2700 9750 2700
Wire Wire Line
	9750 2700 10000 2700
Connection ~ 9750 2700
Wire Wire Line
	9500 2500 9650 2500
Wire Wire Line
	9650 2500 9650 2400
Wire Wire Line
	9650 2400 9750 2400
Connection ~ 9500 2500
$Comp
L power:GND #PWR0120
U 1 1 5EA5CF01
P 9500 3500
F 0 "#PWR0120" H 9500 3250 50  0001 C CNN
F 1 "GND" H 9505 3327 50  0000 C CNN
F 2 "" H 9500 3500 50  0001 C CNN
F 3 "" H 9500 3500 50  0001 C CNN
	1    9500 3500
	1    0    0    -1  
$EndComp
$Comp
L power:+5V #PWR0121
U 1 1 5EA5CF07
P 9500 3200
F 0 "#PWR0121" H 9500 3050 50  0001 C CNN
F 1 "+5V" H 9515 3373 50  0000 C CNN
F 2 "" H 9500 3200 50  0001 C CNN
F 3 "" H 9500 3200 50  0001 C CNN
	1    9500 3200
	1    0    0    -1  
$EndComp
$Comp
L Device:R R13
U 1 1 5EA5CF11
P 9750 3250
F 0 "R13" H 9680 3204 50  0000 R CNN
F 1 "10K" H 9680 3295 50  0000 R CNN
F 2 "Resistor_SMD:R_0603_1608Metric_Pad1.05x0.95mm_HandSolder" V 9680 3250 50  0001 C CNN
F 3 "~" H 9750 3250 50  0001 C CNN
	1    9750 3250
	-1   0    0    1   
$EndComp
$Comp
L Connector_Generic:Conn_02x04_Counter_Clockwise J7
U 1 1 5EA5CF35
P 9100 3300
F 0 "J7" H 9150 3617 50  0000 C CNN
F 1 "Conn_02x04_Counter_Clockwise" H 9150 3700 50  0000 C CNN
F 2 "Connector_PinHeader_2.54mm:PinHeader_2x04_P2.54mm_Vertical_SMD" H 9100 3300 50  0001 C CNN
F 3 "~" H 9100 3300 50  0001 C CNN
	1    9100 3300
	1    0    0    -1  
$EndComp
Wire Wire Line
	9500 3500 9400 3500
Wire Wire Line
	9400 3200 9500 3200
Wire Wire Line
	9500 3300 9400 3300
Wire Wire Line
	9400 3400 9750 3400
Wire Wire Line
	9750 3400 10000 3400
Connection ~ 9750 3400
Wire Wire Line
	9500 3200 9650 3200
Wire Wire Line
	9650 3200 9650 3100
Wire Wire Line
	9650 3100 9750 3100
Connection ~ 9500 3200
Text GLabel 10000 2700 2    50   Input ~ 0
A10
$Comp
L Mechanical:MountingHole H1
U 1 1 5EC68552
P 650 700
F 0 "H1" H 750 746 50  0000 L CNN
F 1 "MountingHole" H 750 655 50  0000 L CNN
F 2 "MountingHole:MountingHole_3.2mm_M3" H 650 700 50  0001 C CNN
F 3 "~" H 650 700 50  0001 C CNN
	1    650  700 
	1    0    0    -1  
$EndComp
$Comp
L Mechanical:MountingHole H3
U 1 1 5EC68660
P 1100 700
F 0 "H3" H 1200 746 50  0000 L CNN
F 1 "MountingHole" H 1200 655 50  0000 L CNN
F 2 "MountingHole:MountingHole_3.2mm_M3" H 1100 700 50  0001 C CNN
F 3 "~" H 1100 700 50  0001 C CNN
	1    1100 700 
	1    0    0    -1  
$EndComp
$Comp
L Mechanical:MountingHole H2
U 1 1 5EC686BC
P 650 900
F 0 "H2" H 750 946 50  0000 L CNN
F 1 "MountingHole" H 750 855 50  0000 L CNN
F 2 "MountingHole:MountingHole_3.2mm_M3" H 650 900 50  0001 C CNN
F 3 "~" H 650 900 50  0001 C CNN
	1    650  900 
	1    0    0    -1  
$EndComp
$Comp
L Mechanical:MountingHole H4
U 1 1 5EC6871A
P 1100 900
F 0 "H4" H 1200 946 50  0000 L CNN
F 1 "MountingHole" H 1200 855 50  0000 L CNN
F 2 "MountingHole:MountingHole_3.2mm_M3" H 1100 900 50  0001 C CNN
F 3 "~" H 1100 900 50  0001 C CNN
	1    1100 900 
	1    0    0    -1  
$EndComp
Wire Wire Line
	2150 7000 2450 7000
$EndSCHEMATC
