EESchema Schematic File Version 4
LIBS:MegaLeoPcb-cache
EELAYER 26 0
EELAYER END
$Descr A4 11693 8268
encoding utf-8
Sheet 9 9
Title ""
Date ""
Rev ""
Comp ""
Comment1 ""
Comment2 ""
Comment3 ""
Comment4 ""
$EndDescr
$Comp
L Transistor_BJT:BC817 Q3
U 1 1 5E8B48B3
P 3800 2800
AR Path="/5E8B164F/5E8B48B3" Ref="Q3"  Part="1" 
AR Path="/5E8CFFED/5E8B48B3" Ref="Q7"  Part="1" 
AR Path="/5E8D08C1/5E8B48B3" Ref="Q11"  Part="1" 
AR Path="/5E8D08C7/5E8B48B3" Ref="Q15"  Part="1" 
F 0 "Q15" H 3990 2846 50  0000 L CNN
F 1 "BC817" H 3990 2755 50  0000 L CNN
F 2 "Package_TO_SOT_SMD:SOT-23" H 4000 2725 50  0001 L CIN
F 3 "http://www.fairchildsemi.com/ds/BC/BC817.pdf" H 3800 2800 50  0001 L CNN
	1    3800 2800
	1    0    0    -1  
$EndComp
$Comp
L Connector:Screw_Terminal_01x02 J12
U 1 1 5E8B48BA
P 4300 2450
AR Path="/5E8B164F/5E8B48BA" Ref="J12"  Part="1" 
AR Path="/5E8CFFED/5E8B48BA" Ref="J21"  Part="1" 
AR Path="/5E8D08C1/5E8B48BA" Ref="J25"  Part="1" 
AR Path="/5E8D08C7/5E8B48BA" Ref="J29"  Part="1" 
F 0 "J29" H 4220 2125 50  0000 C CNN
F 1 "Screw_Terminal_01x02" H 4800 2400 50  0000 C CNN
F 2 "TerminalBlock_4Ucon:TerminalBlock_4Ucon_1x02_P3.50mm_Horizontal" H 4300 2450 50  0001 C CNN
F 3 "~" H 4300 2450 50  0001 C CNN
	1    4300 2450
	1    0    0    -1  
$EndComp
$Comp
L power:GND #PWR0128
U 1 1 5E8B48CC
P 3900 3100
AR Path="/5E8B164F/5E8B48CC" Ref="#PWR0128"  Part="1" 
AR Path="/5E8CFFED/5E8B48CC" Ref="#PWR0148"  Part="1" 
AR Path="/5E8D08C1/5E8B48CC" Ref="#PWR0156"  Part="1" 
AR Path="/5E8D08C7/5E8B48CC" Ref="#PWR0164"  Part="1" 
F 0 "#PWR0164" H 3900 2850 50  0001 C CNN
F 1 "GND" H 3905 2927 50  0000 C CNN
F 2 "" H 3900 3100 50  0001 C CNN
F 3 "" H 3900 3100 50  0001 C CNN
	1    3900 3100
	1    0    0    -1  
$EndComp
Wire Wire Line
	3900 3100 3900 3000
$Comp
L power:+12V #PWR0129
U 1 1 5E8B48D4
P 4050 2450
AR Path="/5E8B164F/5E8B48D4" Ref="#PWR0129"  Part="1" 
AR Path="/5E8CFFED/5E8B48D4" Ref="#PWR0149"  Part="1" 
AR Path="/5E8D08C1/5E8B48D4" Ref="#PWR0157"  Part="1" 
AR Path="/5E8D08C7/5E8B48D4" Ref="#PWR0165"  Part="1" 
F 0 "#PWR0165" H 4050 2300 50  0001 C CNN
F 1 "+12V" H 4065 2623 50  0000 C CNN
F 2 "" H 4050 2450 50  0001 C CNN
F 3 "" H 4050 2450 50  0001 C CNN
	1    4050 2450
	1    0    0    -1  
$EndComp
Text HLabel 3000 2800 0    50   Input ~ 0
Input1
$Comp
L Device:R R19
U 1 1 5E8CCB8A
P 3300 2800
AR Path="/5E8B164F/5E8CCB8A" Ref="R19"  Part="1" 
AR Path="/5E8CFFED/5E8CCB8A" Ref="R71"  Part="1" 
AR Path="/5E8D08C1/5E8CCB8A" Ref="R75"  Part="1" 
AR Path="/5E8D08C7/5E8CCB8A" Ref="R79"  Part="1" 
F 0 "R79" V 3200 2800 50  0000 C CNN
F 1 "100R" V 3300 2800 50  0000 C CNN
F 2 "Resistor_SMD:R_0603_1608Metric_Pad1.05x0.95mm_HandSolder" V 3230 2800 50  0001 C CNN
F 3 "~" H 3300 2800 50  0001 C CNN
	1    3300 2800
	0    1    1    0   
$EndComp
Wire Wire Line
	3000 2800 3150 2800
Wire Wire Line
	3450 2800 3600 2800
Wire Wire Line
	4100 2550 3900 2550
Wire Wire Line
	3900 2550 3900 2600
Wire Wire Line
	4100 2450 4050 2450
$Comp
L Transistor_BJT:BC817 Q1
U 1 1 5E8CE829
P 3700 4000
AR Path="/5E8B164F/5E8CE829" Ref="Q1"  Part="1" 
AR Path="/5E8CFFED/5E8CE829" Ref="Q5"  Part="1" 
AR Path="/5E8D08C1/5E8CE829" Ref="Q9"  Part="1" 
AR Path="/5E8D08C7/5E8CE829" Ref="Q13"  Part="1" 
F 0 "Q13" H 3890 4046 50  0000 L CNN
F 1 "BC817" H 3890 3955 50  0000 L CNN
F 2 "Package_TO_SOT_SMD:SOT-23" H 3900 3925 50  0001 L CIN
F 3 "http://www.fairchildsemi.com/ds/BC/BC817.pdf" H 3700 4000 50  0001 L CNN
	1    3700 4000
	1    0    0    -1  
$EndComp
$Comp
L Connector:Screw_Terminal_01x02 J8
U 1 1 5E8CE830
P 4200 3650
AR Path="/5E8B164F/5E8CE830" Ref="J8"  Part="1" 
AR Path="/5E8CFFED/5E8CE830" Ref="J19"  Part="1" 
AR Path="/5E8D08C1/5E8CE830" Ref="J23"  Part="1" 
AR Path="/5E8D08C7/5E8CE830" Ref="J27"  Part="1" 
F 0 "J27" H 4120 3325 50  0000 C CNN
F 1 "Screw_Terminal_01x02" H 4700 3600 50  0000 C CNN
F 2 "TerminalBlock_4Ucon:TerminalBlock_4Ucon_1x02_P3.50mm_Horizontal" H 4200 3650 50  0001 C CNN
F 3 "~" H 4200 3650 50  0001 C CNN
	1    4200 3650
	1    0    0    -1  
$EndComp
$Comp
L power:GND #PWR0130
U 1 1 5E8CE837
P 3800 4300
AR Path="/5E8B164F/5E8CE837" Ref="#PWR0130"  Part="1" 
AR Path="/5E8CFFED/5E8CE837" Ref="#PWR0150"  Part="1" 
AR Path="/5E8D08C1/5E8CE837" Ref="#PWR0158"  Part="1" 
AR Path="/5E8D08C7/5E8CE837" Ref="#PWR0166"  Part="1" 
F 0 "#PWR0166" H 3800 4050 50  0001 C CNN
F 1 "GND" H 3805 4127 50  0000 C CNN
F 2 "" H 3800 4300 50  0001 C CNN
F 3 "" H 3800 4300 50  0001 C CNN
	1    3800 4300
	1    0    0    -1  
$EndComp
Wire Wire Line
	3800 4300 3800 4200
$Comp
L power:+12V #PWR0134
U 1 1 5E8CE83E
P 3950 3650
AR Path="/5E8B164F/5E8CE83E" Ref="#PWR0134"  Part="1" 
AR Path="/5E8CFFED/5E8CE83E" Ref="#PWR0151"  Part="1" 
AR Path="/5E8D08C1/5E8CE83E" Ref="#PWR0159"  Part="1" 
AR Path="/5E8D08C7/5E8CE83E" Ref="#PWR0167"  Part="1" 
F 0 "#PWR0167" H 3950 3500 50  0001 C CNN
F 1 "+12V" H 3965 3823 50  0000 C CNN
F 2 "" H 3950 3650 50  0001 C CNN
F 3 "" H 3950 3650 50  0001 C CNN
	1    3950 3650
	1    0    0    -1  
$EndComp
Text HLabel 2900 4000 0    50   Input ~ 0
Input2
$Comp
L Device:R R17
U 1 1 5E8CE845
P 3200 4000
AR Path="/5E8B164F/5E8CE845" Ref="R17"  Part="1" 
AR Path="/5E8CFFED/5E8CE845" Ref="R69"  Part="1" 
AR Path="/5E8D08C1/5E8CE845" Ref="R73"  Part="1" 
AR Path="/5E8D08C7/5E8CE845" Ref="R77"  Part="1" 
F 0 "R77" V 3100 4000 50  0000 C CNN
F 1 "100R" V 3200 4000 50  0000 C CNN
F 2 "Resistor_SMD:R_0603_1608Metric_Pad1.05x0.95mm_HandSolder" V 3130 4000 50  0001 C CNN
F 3 "~" H 3200 4000 50  0001 C CNN
	1    3200 4000
	0    1    1    0   
$EndComp
Wire Wire Line
	2900 4000 3050 4000
Wire Wire Line
	3350 4000 3500 4000
Wire Wire Line
	4000 3750 3800 3750
Wire Wire Line
	3800 3750 3800 3800
Wire Wire Line
	4000 3650 3950 3650
$Comp
L Transistor_BJT:BC817 Q2
U 1 1 5E8CEA22
P 3750 5150
AR Path="/5E8B164F/5E8CEA22" Ref="Q2"  Part="1" 
AR Path="/5E8CFFED/5E8CEA22" Ref="Q6"  Part="1" 
AR Path="/5E8D08C1/5E8CEA22" Ref="Q10"  Part="1" 
AR Path="/5E8D08C7/5E8CEA22" Ref="Q14"  Part="1" 
F 0 "Q14" H 3940 5196 50  0000 L CNN
F 1 "BC817" H 3940 5105 50  0000 L CNN
F 2 "Package_TO_SOT_SMD:SOT-23" H 3950 5075 50  0001 L CIN
F 3 "http://www.fairchildsemi.com/ds/BC/BC817.pdf" H 3750 5150 50  0001 L CNN
	1    3750 5150
	1    0    0    -1  
$EndComp
$Comp
L Connector:Screw_Terminal_01x02 J10
U 1 1 5E8CEA29
P 4250 4800
AR Path="/5E8B164F/5E8CEA29" Ref="J10"  Part="1" 
AR Path="/5E8CFFED/5E8CEA29" Ref="J20"  Part="1" 
AR Path="/5E8D08C1/5E8CEA29" Ref="J24"  Part="1" 
AR Path="/5E8D08C7/5E8CEA29" Ref="J28"  Part="1" 
F 0 "J28" H 4170 4475 50  0000 C CNN
F 1 "Screw_Terminal_01x02" H 4750 4750 50  0000 C CNN
F 2 "TerminalBlock_4Ucon:TerminalBlock_4Ucon_1x02_P3.50mm_Horizontal" H 4250 4800 50  0001 C CNN
F 3 "~" H 4250 4800 50  0001 C CNN
	1    4250 4800
	1    0    0    -1  
$EndComp
$Comp
L power:GND #PWR0136
U 1 1 5E8CEA30
P 3850 5450
AR Path="/5E8B164F/5E8CEA30" Ref="#PWR0136"  Part="1" 
AR Path="/5E8CFFED/5E8CEA30" Ref="#PWR0152"  Part="1" 
AR Path="/5E8D08C1/5E8CEA30" Ref="#PWR0160"  Part="1" 
AR Path="/5E8D08C7/5E8CEA30" Ref="#PWR0168"  Part="1" 
F 0 "#PWR0168" H 3850 5200 50  0001 C CNN
F 1 "GND" H 3855 5277 50  0000 C CNN
F 2 "" H 3850 5450 50  0001 C CNN
F 3 "" H 3850 5450 50  0001 C CNN
	1    3850 5450
	1    0    0    -1  
$EndComp
Wire Wire Line
	3850 5450 3850 5350
$Comp
L power:+12V #PWR0137
U 1 1 5E8CEA37
P 4000 4800
AR Path="/5E8B164F/5E8CEA37" Ref="#PWR0137"  Part="1" 
AR Path="/5E8CFFED/5E8CEA37" Ref="#PWR0153"  Part="1" 
AR Path="/5E8D08C1/5E8CEA37" Ref="#PWR0161"  Part="1" 
AR Path="/5E8D08C7/5E8CEA37" Ref="#PWR0169"  Part="1" 
F 0 "#PWR0169" H 4000 4650 50  0001 C CNN
F 1 "+12V" H 4015 4973 50  0000 C CNN
F 2 "" H 4000 4800 50  0001 C CNN
F 3 "" H 4000 4800 50  0001 C CNN
	1    4000 4800
	1    0    0    -1  
$EndComp
Text HLabel 2950 5150 0    50   Input ~ 0
Input3
$Comp
L Device:R R18
U 1 1 5E8CEA3E
P 3250 5150
AR Path="/5E8B164F/5E8CEA3E" Ref="R18"  Part="1" 
AR Path="/5E8CFFED/5E8CEA3E" Ref="R70"  Part="1" 
AR Path="/5E8D08C1/5E8CEA3E" Ref="R74"  Part="1" 
AR Path="/5E8D08C7/5E8CEA3E" Ref="R78"  Part="1" 
F 0 "R78" V 3150 5150 50  0000 C CNN
F 1 "100R" V 3250 5150 50  0000 C CNN
F 2 "Resistor_SMD:R_0603_1608Metric_Pad1.05x0.95mm_HandSolder" V 3180 5150 50  0001 C CNN
F 3 "~" H 3250 5150 50  0001 C CNN
	1    3250 5150
	0    1    1    0   
$EndComp
Wire Wire Line
	2950 5150 3100 5150
Wire Wire Line
	3400 5150 3550 5150
Wire Wire Line
	4050 4900 3850 4900
Wire Wire Line
	3850 4900 3850 4950
Wire Wire Line
	4050 4800 4000 4800
$Comp
L Transistor_BJT:BC817 Q4
U 1 1 5E8CED29
P 3850 6350
AR Path="/5E8B164F/5E8CED29" Ref="Q4"  Part="1" 
AR Path="/5E8CFFED/5E8CED29" Ref="Q8"  Part="1" 
AR Path="/5E8D08C1/5E8CED29" Ref="Q12"  Part="1" 
AR Path="/5E8D08C7/5E8CED29" Ref="Q16"  Part="1" 
F 0 "Q16" H 4040 6396 50  0000 L CNN
F 1 "BC817" H 4040 6305 50  0000 L CNN
F 2 "Package_TO_SOT_SMD:SOT-23" H 4050 6275 50  0001 L CIN
F 3 "http://www.fairchildsemi.com/ds/BC/BC817.pdf" H 3850 6350 50  0001 L CNN
	1    3850 6350
	1    0    0    -1  
$EndComp
$Comp
L Connector:Screw_Terminal_01x02 J13
U 1 1 5E8CED30
P 4350 6000
AR Path="/5E8B164F/5E8CED30" Ref="J13"  Part="1" 
AR Path="/5E8CFFED/5E8CED30" Ref="J22"  Part="1" 
AR Path="/5E8D08C1/5E8CED30" Ref="J26"  Part="1" 
AR Path="/5E8D08C7/5E8CED30" Ref="J30"  Part="1" 
F 0 "J30" H 4270 5675 50  0000 C CNN
F 1 "Screw_Terminal_01x02" H 4850 5950 50  0000 C CNN
F 2 "TerminalBlock_4Ucon:TerminalBlock_4Ucon_1x02_P3.50mm_Horizontal" H 4350 6000 50  0001 C CNN
F 3 "~" H 4350 6000 50  0001 C CNN
	1    4350 6000
	1    0    0    -1  
$EndComp
$Comp
L power:GND #PWR0138
U 1 1 5E8CED37
P 3950 6650
AR Path="/5E8B164F/5E8CED37" Ref="#PWR0138"  Part="1" 
AR Path="/5E8CFFED/5E8CED37" Ref="#PWR0154"  Part="1" 
AR Path="/5E8D08C1/5E8CED37" Ref="#PWR0162"  Part="1" 
AR Path="/5E8D08C7/5E8CED37" Ref="#PWR0170"  Part="1" 
F 0 "#PWR0170" H 3950 6400 50  0001 C CNN
F 1 "GND" H 3955 6477 50  0000 C CNN
F 2 "" H 3950 6650 50  0001 C CNN
F 3 "" H 3950 6650 50  0001 C CNN
	1    3950 6650
	1    0    0    -1  
$EndComp
Wire Wire Line
	3950 6650 3950 6550
$Comp
L power:+12V #PWR0139
U 1 1 5E8CED3E
P 4100 6000
AR Path="/5E8B164F/5E8CED3E" Ref="#PWR0139"  Part="1" 
AR Path="/5E8CFFED/5E8CED3E" Ref="#PWR0155"  Part="1" 
AR Path="/5E8D08C1/5E8CED3E" Ref="#PWR0163"  Part="1" 
AR Path="/5E8D08C7/5E8CED3E" Ref="#PWR0171"  Part="1" 
F 0 "#PWR0171" H 4100 5850 50  0001 C CNN
F 1 "+12V" H 4115 6173 50  0000 C CNN
F 2 "" H 4100 6000 50  0001 C CNN
F 3 "" H 4100 6000 50  0001 C CNN
	1    4100 6000
	1    0    0    -1  
$EndComp
Text HLabel 3050 6350 0    50   Input ~ 0
Input4
$Comp
L Device:R R20
U 1 1 5E8CED45
P 3350 6350
AR Path="/5E8B164F/5E8CED45" Ref="R20"  Part="1" 
AR Path="/5E8CFFED/5E8CED45" Ref="R72"  Part="1" 
AR Path="/5E8D08C1/5E8CED45" Ref="R76"  Part="1" 
AR Path="/5E8D08C7/5E8CED45" Ref="R80"  Part="1" 
F 0 "R80" V 3250 6350 50  0000 C CNN
F 1 "100R" V 3350 6350 50  0000 C CNN
F 2 "Resistor_SMD:R_0603_1608Metric_Pad1.05x0.95mm_HandSolder" V 3280 6350 50  0001 C CNN
F 3 "~" H 3350 6350 50  0001 C CNN
	1    3350 6350
	0    1    1    0   
$EndComp
Wire Wire Line
	3050 6350 3200 6350
Wire Wire Line
	3500 6350 3650 6350
Wire Wire Line
	4150 6100 3950 6100
Wire Wire Line
	3950 6100 3950 6150
Wire Wire Line
	4150 6000 4100 6000
$EndSCHEMATC
